lev_ctl/simulation/qsim/lev_ctl.msim.vcd
$comment
	File created using the following command:
		vcd file lev_ctl.msim.vcd -direction
$end
$date
	Sat Jun 21 16:53:10 2025
$end
$version
	ModelSim Version 10.1d
$end
$timescale
	1ps
$end
$scope module lev_ctl_vlg_vec_tst $end
$var reg 1 ! clk_1mhz $end
$var reg 5 " data [4:0] $end
$var reg 1 # rst_n $end
$var wire 1 $ div_max [10] $end
$var wire 1 % div_max [9] $end
$var wire 1 & div_max [8] $end
$var wire 1 ' div_max [7] $end
$var wire 1 ( div_max [6] $end
$var wire 1 ) div_max [5] $end
$var wire 1 * div_max [4] $end
$var wire 1 + div_max [3] $end
$var wire 1 , div_max [2] $end
$var wire 1 - div_max [1] $end
$var wire 1 . div_max [0] $end
$var wire 1 / sampler $end
$scope module i1 $end
$var wire 1 0 gnd $end
$var wire 1 1 vcc $end
$var wire 1 2 unknown $end
$var tri1 1 3 devclrn $end
$var tri1 1 4 devpor $end
$var tri1 1 5 devoe $end
$var wire 1 6 div_max[0]~output_o $end
$var wire 1 7 div_max[1]~output_o $end
$var wire 1 8 div_max[2]~output_o $end
$var wire 1 9 div_max[3]~output_o $end
$var wire 1 : div_max[4]~output_o $end
$var wire 1 ; div_max[5]~output_o $end
$var wire 1 < div_max[6]~output_o $end
$var wire 1 = div_max[7]~output_o $end
$var wire 1 > div_max[8]~output_o $end
$var wire 1 ? div_max[9]~output_o $end
$var wire 1 @ div_max[10]~output_o $end
$var wire 1 A clk_1mhz~input_o $end
$var wire 1 B clk_1mhz~inputclkctrl_outclk $end
$var wire 1 C data[4]~input_o $end
$var wire 1 D data[1]~input_o $end
$var wire 1 E data[3]~input_o $end
$var wire 1 F data[2]~input_o $end
$var wire 1 G data[0]~input_o $end
$var wire 1 H WideOr10~0_combout $end
$var wire 1 I WideOr10~1_combout $end
$var wire 1 J rst_n~input_o $end
$var wire 1 K rst_n~inputclkctrl_outclk $end
$var wire 1 L WideOr9~1_combout $end
$var wire 1 M WideOr9~0_combout $end
$var wire 1 N WideOr9~2_combout $end
$var wire 1 O WideOr8~0_combout $end
$var wire 1 P WideOr8~1_combout $end
$var wire 1 Q WideOr8~2_combout $end
$var wire 1 R WideOr7~0_combout $end
$var wire 1 S WideOr7~1_combout $end
$var wire 1 T WideOr6~0_combout $end
$var wire 1 U WideOr6~1_combout $end
$var wire 1 V WideOr6~2_combout $end
$var wire 1 W WideOr5~0_combout $end
$var wire 1 X WideOr5~1_combout $end
$var wire 1 Y WideOr4~1_combout $end
$var wire 1 Z WideOr4~0_combout $end
$var wire 1 [ WideOr4~2_combout $end
$var wire 1 \ WideOr3~1_combout $end
$var wire 1 ] WideOr3~0_combout $end
$var wire 1 ^ WideOr3~2_combout $end
$var wire 1 _ WideOr2~1_combout $end
$var wire 1 ` WideOr2~0_combout $end
$var wire 1 a WideOr2~2_combout $end
$var wire 1 b WideOr1~0_combout $end
$var wire 1 c WideOr1~1_combout $end
$var wire 1 d WideOr0~0_combout $end
$var wire 1 e wave_cnt_max [10] $end
$var wire 1 f wave_cnt_max [9] $end
$var wire 1 g wave_cnt_max [8] $end
$var wire 1 h wave_cnt_max [7] $end
$var wire 1 i wave_cnt_max [6] $end
$var wire 1 j wave_cnt_max [5] $end
$var wire 1 k wave_cnt_max [4] $end
$var wire 1 l wave_cnt_max [3] $end
$var wire 1 m wave_cnt_max [2] $end
$var wire 1 n wave_cnt_max [1] $end
$var wire 1 o wave_cnt_max [0] $end
$upscope $end
$upscope $end
$enddefinitions $end
#0
$dumpvars
0!
b0 "
0#
0.
0-
0,
0+
0*
0)
0(
0'
0&
0%
0$
x/
00
11
x2
13
14
15
06
07
08
09
0:
0;
0<
0=
0>
0?
0@
0A
0B
0C
0D
0E
0F
0G
0H
0I
0J
0K
0L
0M
0N
0O
0P
0Q
0R
0S
0T
0U
0V
0W
0X
0Y
0Z
0[
0\
0]
0^
0_
0`
0a
0b
0c
0d
0o
0n
0m
0l
0k
0j
0i
0h
0g
0f
0e
$end
#5000
1!
1A
1B
0/
#10000
0!
0A
0B
1/
#15000
1!
1A
1B
0/
#20000
0!
0A
0B
1/
#25000
1!
1A
1B
0/
#30000
0!
0A
0B
1/
#35000
1!
1A
1B
0/
#40000
0!
0A
0B
1/
#45000
1!
1A
1B
0/
#50000
b1 "
0!
1G
0A
0B
1/
1b
1`
1R
1O
1M
#55000
1!
1A
1B
0/
#60000
0!
0A
0B
1/
#65000
1!
1A
1B
0/
#70000
0!
0A
0B
1/
#75000
1!
1A
1B
0/
#80000
0!
0A
0B
1/
#85000
1!
1A
1B
0/
#90000
0!
0A
0B
1/
#95000
1!
1A
1B
0/
#100000
b11 "
1#
b10 "
0!
0G
1D
1J
0A
1K
0B
1/
0`
1]
1T
0R
#105000
1!
1A
1B
0/
#110000
0!
0A
0B
1/
#115000
1!
1A
1B
0/
#120000
0!
0A
0B
1/
#125000
1!
1A
1B
0/
#130000
0!
0A
0B
1/
#135000
1!
1A
1B
0/
#140000
0!
0A
0B
1/
#145000
1!
1A
1B
0/
#150000
b11 "
0!
1G
0A
0B
1/
0b
1`
#155000
1!
1A
1B
0/
#160000
0!
0A
0B
1/
#165000
1!
1A
1B
0/
#170000
0!
0A
0B
1/
#175000
1!
1A
1B
0/
#180000
0!
0A
0B
1/
#185000
1!
1A
1B
0/
#190000
0!
0A
0B
1/
#195000
1!
1A
1B
0/
#200000
b111 "
b101 "
0#
b100 "
0!
0G
0D
1F
0J
0A
0K
0B
1/
0T
1R
0M
#205000
1!
1A
1B
0/
#210000
0!
0A
0B
1/
#215000
1!
1A
1B
0/
#220000
0!
0A
0B
1/
#225000
1!
1A
1B
0/
#230000
0!
0A
0B
1/
#235000
1!
1A
1B
0/
#240000
0!
0A
0B
1/
#245000
1!
1A
1B
0/
#250000
b101 "
0!
1G
0A
0B
1/
0`
1T
1M
#255000
1!
1A
1B
0/
#260000
0!
0A
0B
1/
#265000
1!
1A
1B
0/
#270000
0!
0A
0B
1/
#275000
1!
1A
1B
0/
#280000
0!
0A
0B
1/
#285000
1!
1A
1B
0/
#290000
0!
0A
0B
1/
#295000
1!
1A
1B
0/
#300000
b111 "
1#
b110 "
0!
0G
1D
1J
0A
1K
0B
1/
0]
0O
0M
#305000
1!
1A
1B
0/
#310000
0!
0A
0B
1/
#315000
1!
1A
1B
0/
#320000
0!
0A
0B
1/
#325000
1!
1A
1B
0/
#330000
0!
0A
0B
1/
#335000
1!
1A
1B
0/
#340000
0!
0A
0B
1/
#345000
1!
1A
1B
0/
#350000
b111 "
0!
1G
0A
0B
1/
1b
1`
1]
1O
1M
#355000
1!
1A
1B
0/
#360000
0!
0A
0B
1/
#365000
1!
1A
1B
0/
#370000
0!
0A
0B
1/
#375000
1!
1A
1B
0/
#380000
0!
0A
0B
1/
#385000
1!
1A
1B
0/
#390000
0!
0A
0B
1/
#395000
1!
1A
1B
0/
#400000
b1111 "
b1011 "
b1001 "
0#
b1000 "
0!
0G
0D
0F
1E
0J
0A
0K
0B
1/
0b
0`
0]
0T
0R
0O
0M
1Z
1c
1a
1^
1Q
0c
0a
0^
0Q
#405000
1!
1A
1B
0/
#410000
0!
0A
0B
1/
#415000
1!
1A
1B
0/
#420000
0!
0A
0B
1/
#425000
1!
1A
1B
0/
#430000
0!
0A
0B
1/
#435000
1!
1A
1B
0/
#440000
0!
0A
0B
1/
#445000
1!
1A
1B
0/
#450000
b1001 "
0!
1G
0A
0B
1/
1d
1b
1`
1[
1W
1U
1T
1O
1M
1L
1H
1c
1a
1X
1V
1Q
1N
1I
#455000
1!
1A
1B
0/
#460000
0!
0A
0B
1/
#465000
1!
1A
1B
0/
#470000
0!
0A
0B
1/
#475000
1!
1A
1B
0/
#480000
0!
0A
0B
1/
#485000
1!
1A
1B
0/
#490000
0!
0A
0B
1/
#495000
1!
1A
1B
0/
#500000
b1011 "
1#
b1010 "
0!
0G
1D
1J
0A
1K
0B
1/
0`
1]
0[
0X
0W
0U
0T
1R
0M
0H
0a
1^
1X
0V
0I
#505000
1!
1A
1B
0/
1e
1f
1h
1j
1m
1n
1@
1?
1=
1;
18
17
1$
1%
1'
1)
1,
1-
#510000
0!
0A
0B
1/
#515000
1!
1A
1B
0/
#520000
0!
0A
0B
1/
#525000
1!
1A
1B
0/
#530000
0!
0A
0B
1/
#535000
1!
1A
1B
0/
#540000
0!
0A
0B
1/
#545000
1!
1A
1B
0/
#550000
b1011 "
0!
1G
0A
0B
1/
0b
1`
1[
1W
1T
1S
1M
0L
1H
0c
1a
0N
1I
#555000
1!
1A
1B
0/
0f
1g
1i
1l
0n
1o
0?
1>
1<
19
07
16
0%
1&
1(
1+
0-
1.
#560000
0!
0A
0B
1/
#565000
1!
1A
1B
0/
#570000
0!
0A
0B
1/
#575000
1!
1A
1B
0/
#580000
0!
0A
0B
1/
#585000
1!
1A
1B
0/
#590000
0!
0A
0B
1/
#595000
1!
1A
1B
0/
#600000
b1111 "
b1101 "
0#
b1100 "
0!
0G
0D
1F
0J
0A
0K
0B
1/
0[
0W
1U
0T
0S
0R
1L
0X
1V
1N
0e
0g
0h
0i
0j
0l
0m
0o
0@
0>
0=
0<
0;
09
08
06
0$
0&
0'
0(
0)
0+
0,
0.
#605000
1!
1A
1B
0/
#610000
0!
0A
0B
1/
#615000
1!
1A
1B
0/
#620000
0!
0A
0B
1/
#625000
1!
1A
1B
0/
#630000
0!
0A
0B
1/
#635000
1!
1A
1B
0/
#640000
0!
0A
0B
1/
#645000
1!
1A
1B
0/
#650000
b1101 "
0!
1G
0A
0B
1/
0`
1[
1W
1T
1R
0L
0H
0a
1X
1S
0N
0I
#655000
1!
1A
1B
0/
#660000
0!
0A
0B
1/
#665000
1!
1A
1B
0/
#670000
0!
0A
0B
1/
#675000
1!
1A
1B
0/
#680000
0!
0A
0B
1/
#685000
1!
1A
1B
0/
#690000
0!
0A
0B
1/
#695000
1!
1A
1B
0/
#700000
b1111 "
1#
b1110 "
0!
0G
1D
1J
0A
1K
0B
1/
0]
0[
0X
0W
0S
0O
0M
1H
1Y
0^
1X
0Q
1[
#705000
1!
1A
1B
0/
1e
1i
1j
1k
1@
1<
1;
1:
1$
1(
1)
1*
#710000
0!
0A
0B
1/
#715000
1!
1A
1B
0/
#720000
0!
0A
0B
1/
#725000
1!
1A
1B
0/
#730000
0!
0A
0B
1/
#735000
1!
1A
1B
0/
#740000
0!
0A
0B
1/
#745000
1!
1A
1B
0/
#750000
b1111 "
0!
1G
0A
0B
1/
0d
1b
1`
1]
1W
1S
0R
1O
0H
1c
1a
1^
0S
1Q
#755000
1!
1A
1B
0/
0e
1f
1g
1h
1m
0@
1?
1>
1=
18
0$
1%
1&
1'
1,
#760000
0!
0A
0B
1/
#765000
1!
1A
1B
0/
#770000
0!
0A
0B
1/
#775000
1!
1A
1B
0/
#780000
0!
0A
0B
1/
#785000
1!
1A
1B
0/
#790000
0!
0A
0B
1/
#795000
1!
1A
1B
0/
#800000
b11111 "
b10111 "
b10011 "
b10001 "
0#
b10000 "
0!
0G
0D
0F
0E
1C
0J
0A
0K
0B
1/
0b
0`
0]
0X
0W
0U
0T
0O
0Z
0Y
0a
0^
0Q
0c
0V
0[
0f
0g
0h
0i
0j
0k
0m
0?
0>
0=
0<
0;
0:
08
0%
0&
0'
0(
0)
0*
0,
#805000
1!
1A
1B
0/
#810000
0!
0A
0B
1/
#815000
1!
1A
1B
0/
#820000
0!
0A
0B
1/
#825000
1!
1A
1B
0/
#830000
0!
0A
0B
1/
#835000
1!
1A
1B
0/
#840000
0!
0A
0B
1/
#845000
1!
1A
1B
0/
#850000
b10001 "
0!
1G
0A
0B
1/
1b
1`
1_
1]
1\
1W
1R
1O
1M
1H
1c
1a
1^
1X
1S
1N
1I
#855000
1!
1A
1B
0/
#860000
0!
0A
0B
1/
#865000
1!
1A
1B
0/
#870000
0!
0A
0B
1/
#875000
1!
1A
1B
0/
#880000
0!
0A
0B
1/
#885000
1!
1A
1B
0/
#890000
0!
0A
0B
1/
#895000
1!
1A
1B
0/
#900000
b10011 "
1#
b10010 "
0!
0G
1D
1J
0A
1K
0B
1/
0\
0W
1T
0R
0O
0H
1Z
1Y
0I
0^
0X
1V
0S
1I
1[
#905000
1!
1A
1B
0/
1f
1g
1i
1k
1n
1o
1?
1>
1<
1:
17
16
1%
1&
1(
1*
1-
1.
#910000
0!
0A
0B
1/
#915000
1!
1A
1B
0/
#920000
0!
0A
0B
1/
#925000
1!
1A
1B
0/
#930000
0!
0A
0B
1/
#935000
1!
1A
1B
0/
#940000
0!
0A
0B
1/
#945000
1!
1A
1B
0/
#950000
b10011 "
0!
1G
0A
0B
1/
0_
0]
1\
1W
1P
1H
0a
1^
1X
1Q
0I
#955000
1!
1A
1B
0/
0g
1h
1j
1m
0o
0>
1=
1;
18
06
0&
1'
1)
1,
0.
#960000
0!
0A
0B
1/
#965000
1!
1A
1B
0/
#970000
0!
0A
0B
1/
#975000
1!
1A
1B
0/
#980000
0!
0A
0B
1/
#985000
1!
1A
1B
0/
#990000
0!
0A
0B
1/
#995000
1!
1A
1B
0/
