music/simulation/qsim/music.msim.vcd
$comment
	File created using the following command:
		vcd file music.msim.vcd -direction
$end
$date
	Sat Jun 21 17:39:50 2025
$end
$version
	ModelSim Version 10.1d
$end
$timescale
	1ps
$end
$scope module music_vlg_vec_tst $end
$var reg 1 ! btn $end
$var reg 1 " clk_20mhz $end
$var reg 1 # rst_n $end
$var wire 1 $ been $end
$var wire 1 % led_flash $end
$var wire 1 & seg [6] $end
$var wire 1 ' seg [5] $end
$var wire 1 ( seg [4] $end
$var wire 1 ) seg [3] $end
$var wire 1 * seg [2] $end
$var wire 1 + seg [1] $end
$var wire 1 , seg [0] $end
$var wire 1 - sampler $end
$scope module i1 $end
$var wire 1 . gnd $end
$var wire 1 / vcc $end
$var wire 1 0 unknown $end
$var tri1 1 1 devclrn $end
$var tri1 1 2 devpor $end
$var tri1 1 3 devoe $end
$var wire 1 4 been~output_o $end
$var wire 1 5 seg[0]~output_o $end
$var wire 1 6 seg[1]~output_o $end
$var wire 1 7 seg[2]~output_o $end
$var wire 1 8 seg[3]~output_o $end
$var wire 1 9 seg[4]~output_o $end
$var wire 1 : seg[5]~output_o $end
$var wire 1 ; seg[6]~output_o $end
$var wire 1 < led_flash~output_o $end
$var wire 1 = clk_20mhz~input_o $end
$var wire 1 > clk_20mhz~inputclkctrl_outclk $end
$var wire 1 ? Add0~0_combout $end
$var wire 1 @ rst_n~input_o $end
$var wire 1 A Add0~1 $end
$var wire 1 B Add0~2_combout $end
$var wire 1 C Add0~3 $end
$var wire 1 D Add0~5 $end
$var wire 1 E Add0~6_combout $end
$var wire 1 F Add0~7 $end
$var wire 1 G Add0~8_combout $end
$var wire 1 H clk_div~1_combout $end
$var wire 1 I Equal1~0_combout $end
$var wire 1 J Add0~4_combout $end
$var wire 1 K clk_div~0_combout $end
$var wire 1 L clk_1mhz~0_combout $end
$var wire 1 M clk_1mhz~1_combout $end
$var wire 1 N clk_1mhz~feeder_combout $end
$var wire 1 O clk_1mhz~q $end
$var wire 1 P clk_1mhz~clkctrl_outclk $end
$var wire 1 Q u_debounce|debounce_cnt[0]~20_combout $end
$var wire 1 R btn~input_o $end
$var wire 1 S u_debounce|btn_ff1~0_combout $end
$var wire 1 T u_debounce|btn_ff1~q $end
$var wire 1 U u_debounce|btn_ff2~feeder_combout $end
$var wire 1 V u_debounce|btn_ff2~q $end
$var wire 1 W u_debounce|always0~0_combout $end
$var wire 1 X u_debounce|debounce_cnt[18]~58 $end
$var wire 1 Y u_debounce|debounce_cnt[19]~59_combout $end
$var wire 1 Z ~GND~combout $end
$var wire 1 [ u_debounce|Equal1~3_combout $end
$var wire 1 \ u_debounce|Equal1~2_combout $end
$var wire 1 ] u_debounce|Equal1~1_combout $end
$var wire 1 ^ u_debounce|Equal1~0_combout $end
$var wire 1 _ u_debounce|Equal1~4_combout $end
$var wire 1 ` u_debounce|Equal1~5_combout $end
$var wire 1 a u_debounce|debounce_cnt[14]~22_combout $end
$var wire 1 b u_debounce|debounce_cnt[0]~21 $end
$var wire 1 c u_debounce|debounce_cnt[1]~23_combout $end
$var wire 1 d u_debounce|debounce_cnt[1]~24 $end
$var wire 1 e u_debounce|debounce_cnt[2]~25_combout $end
$var wire 1 f u_debounce|debounce_cnt[2]~26 $end
$var wire 1 g u_debounce|debounce_cnt[3]~27_combout $end
$var wire 1 h u_debounce|debounce_cnt[3]~28 $end
$var wire 1 i u_debounce|debounce_cnt[4]~29_combout $end
$var wire 1 j u_debounce|debounce_cnt[4]~30 $end
$var wire 1 k u_debounce|debounce_cnt[5]~31_combout $end
$var wire 1 l u_debounce|debounce_cnt[5]~32 $end
$var wire 1 m u_debounce|debounce_cnt[6]~33_combout $end
$var wire 1 n u_debounce|debounce_cnt[6]~34 $end
$var wire 1 o u_debounce|debounce_cnt[7]~35_combout $end
$var wire 1 p u_debounce|debounce_cnt[7]~36 $end
$var wire 1 q u_debounce|debounce_cnt[8]~37_combout $end
$var wire 1 r u_debounce|debounce_cnt[8]~38 $end
$var wire 1 s u_debounce|debounce_cnt[9]~39_combout $end
$var wire 1 t u_debounce|debounce_cnt[9]~40 $end
$var wire 1 u u_debounce|debounce_cnt[10]~41_combout $end
$var wire 1 v u_debounce|debounce_cnt[10]~42 $end
$var wire 1 w u_debounce|debounce_cnt[11]~43_combout $end
$var wire 1 x u_debounce|debounce_cnt[11]~44 $end
$var wire 1 y u_debounce|debounce_cnt[12]~45_combout $end
$var wire 1 z u_debounce|debounce_cnt[12]~46 $end
$var wire 1 { u_debounce|debounce_cnt[13]~47_combout $end
$var wire 1 | u_debounce|debounce_cnt[13]~48 $end
$var wire 1 } u_debounce|debounce_cnt[14]~49_combout $end
$var wire 1 ~ u_debounce|debounce_cnt[14]~50 $end
$var wire 1 !! u_debounce|debounce_cnt[15]~51_combout $end
$var wire 1 "! u_debounce|debounce_cnt[15]~52 $end
$var wire 1 #! u_debounce|debounce_cnt[16]~53_combout $end
$var wire 1 $! u_debounce|debounce_cnt[16]~54 $end
$var wire 1 %! u_debounce|debounce_cnt[17]~55_combout $end
$var wire 1 &! u_debounce|debounce_cnt[17]~56 $end
$var wire 1 '! u_debounce|debounce_cnt[18]~57_combout $end
$var wire 1 (! u_debounce|Equal1~6_combout $end
$var wire 1 )! u_debounce|Equal1~7_combout $end
$var wire 1 *! Mux1~1_combout $end
$var wire 1 +! Mux0~0_combout $end
$var wire 1 ,! u_music_mem|note_rom~0feeder_combout $end
$var wire 1 -! u_music_mem|note_rom~0_q $end
$var wire 1 .! u_speed_ctrl|cnt[0]~10_combout $end
$var wire 1 /! u_speed_ctrl|cnt[0]~11 $end
$var wire 1 0! u_speed_ctrl|cnt[1]~14_combout $end
$var wire 1 1! u_speed_ctrl|count[0]~26_combout $end
$var wire 1 2! u_speed_ctrl|count[0]~27 $end
$var wire 1 3! u_speed_ctrl|count[1]~28_combout $end
$var wire 1 4! u_speed_ctrl|count[1]~29 $end
$var wire 1 5! u_speed_ctrl|count[2]~30_combout $end
$var wire 1 6! u_speed_ctrl|count[2]~31 $end
$var wire 1 7! u_speed_ctrl|count[3]~32_combout $end
$var wire 1 8! u_speed_ctrl|count[3]~33 $end
$var wire 1 9! u_speed_ctrl|count[4]~34_combout $end
$var wire 1 :! u_speed_ctrl|count[4]~35 $end
$var wire 1 ;! u_speed_ctrl|count[5]~36_combout $end
$var wire 1 <! u_speed_ctrl|count[5]~37 $end
$var wire 1 =! u_speed_ctrl|count[6]~38_combout $end
$var wire 1 >! u_speed_ctrl|count[6]~39 $end
$var wire 1 ?! u_speed_ctrl|count[7]~40_combout $end
$var wire 1 @! u_speed_ctrl|count[7]~41 $end
$var wire 1 A! u_speed_ctrl|count[8]~42_combout $end
$var wire 1 B! u_speed_ctrl|count[8]~43 $end
$var wire 1 C! u_speed_ctrl|count[9]~44_combout $end
$var wire 1 D! u_speed_ctrl|count[9]~45 $end
$var wire 1 E! u_speed_ctrl|count[10]~46_combout $end
$var wire 1 F! u_speed_ctrl|count[10]~47 $end
$var wire 1 G! u_speed_ctrl|count[11]~48_combout $end
$var wire 1 H! u_speed_ctrl|count[11]~49 $end
$var wire 1 I! u_speed_ctrl|count[12]~50_combout $end
$var wire 1 J! u_speed_ctrl|count[12]~51 $end
$var wire 1 K! u_speed_ctrl|count[13]~52_combout $end
$var wire 1 L! u_speed_ctrl|count[13]~53 $end
$var wire 1 M! u_speed_ctrl|count[14]~54_combout $end
$var wire 1 N! u_speed_ctrl|count[14]~55 $end
$var wire 1 O! u_speed_ctrl|count[15]~56_combout $end
$var wire 1 P! u_speed_ctrl|count[15]~57 $end
$var wire 1 Q! u_speed_ctrl|count[16]~58_combout $end
$var wire 1 R! u_speed_ctrl|count[16]~59 $end
$var wire 1 S! u_speed_ctrl|count[17]~60_combout $end
$var wire 1 T! u_speed_ctrl|count[17]~61 $end
$var wire 1 U! u_speed_ctrl|count[18]~62_combout $end
$var wire 1 V! u_speed_ctrl|count[18]~63 $end
$var wire 1 W! u_speed_ctrl|count[19]~64_combout $end
$var wire 1 X! u_speed_ctrl|count[19]~65 $end
$var wire 1 Y! u_speed_ctrl|count[20]~66_combout $end
$var wire 1 Z! u_speed_ctrl|count[20]~67 $end
$var wire 1 [! u_speed_ctrl|count[21]~68_combout $end
$var wire 1 \! u_speed_ctrl|LessThan0~0_combout $end
$var wire 1 ]! u_speed_ctrl|count[21]~69 $end
$var wire 1 ^! u_speed_ctrl|count[22]~70_combout $end
$var wire 1 _! u_speed_ctrl|count[22]~71 $end
$var wire 1 `! u_speed_ctrl|count[23]~72_combout $end
$var wire 1 a! u_speed_ctrl|count[23]~73 $end
$var wire 1 b! u_speed_ctrl|count[24]~74_combout $end
$var wire 1 c! u_speed_ctrl|count[24]~75 $end
$var wire 1 d! u_speed_ctrl|count[25]~76_combout $end
$var wire 1 e! u_speed_ctrl|LessThan0~1_combout $end
$var wire 1 f! u_speed_ctrl|LessThan0~2_combout $end
$var wire 1 g! u_speed_ctrl|LessThan0~3_combout $end
$var wire 1 h! u_speed_ctrl|LessThan0~4_combout $end
$var wire 1 i! u_speed_ctrl|LessThan0~6_combout $end
$var wire 1 j! u_speed_ctrl|Equal0~0_combout $end
$var wire 1 k! u_speed_ctrl|LessThan0~7_combout $end
$var wire 1 l! u_speed_ctrl|LessThan0~5_combout $end
$var wire 1 m! u_speed_ctrl|LessThan0~8_combout $end
$var wire 1 n! u_speed_ctrl|Equal0~2_combout $end
$var wire 1 o! u_speed_ctrl|Equal0~1_combout $end
$var wire 1 p! Equal3~0_combout $end
$var wire 1 q! rst_cnt~q $end
$var wire 1 r! u_speed_ctrl|cnt[4]~13_combout $end
$var wire 1 s! u_speed_ctrl|cnt[1]~15 $end
$var wire 1 t! u_speed_ctrl|cnt[2]~16_combout $end
$var wire 1 u! u_speed_ctrl|cnt[2]~17 $end
$var wire 1 v! u_speed_ctrl|cnt[3]~18_combout $end
$var wire 1 w! u_speed_ctrl|cnt[3]~19 $end
$var wire 1 x! u_speed_ctrl|cnt[4]~20_combout $end
$var wire 1 y! u_speed_ctrl|cnt[4]~21 $end
$var wire 1 z! u_speed_ctrl|cnt[5]~22_combout $end
$var wire 1 {! u_speed_ctrl|cnt[5]~23 $end
$var wire 1 |! u_speed_ctrl|cnt[6]~24_combout $end
$var wire 1 }! u_speed_ctrl|cnt[6]~25 $end
$var wire 1 ~! u_speed_ctrl|cnt[7]~26_combout $end
$var wire 1 !" u_speed_ctrl|cnt[7]~27 $end
$var wire 1 "" u_speed_ctrl|cnt[8]~28_combout $end
$var wire 1 #" u_speed_ctrl|cnt[8]~29 $end
$var wire 1 $" u_speed_ctrl|cnt[9]~30_combout $end
$var wire 1 %" u_speed_ctrl|Equal1~2_combout $end
$var wire 1 &" u_speed_ctrl|Equal1~1_combout $end
$var wire 1 '" u_speed_ctrl|Equal1~0_combout $end
$var wire 1 (" u_speed_ctrl|cnt[4]~12_combout $end
$var wire 1 )" Equal2~0_combout $end
$var wire 1 *" current_addr[9]~0_combout $end
$var wire 1 +" u_music_mem|note_rom_rtl_0|auto_generated|ram_block1a4 $end
$var wire 1 ," music_final[4]~3_combout $end
$var wire 1 -" u_music_mem|note_rom_rtl_0|auto_generated|ram_block1a0~portadataout $end
$var wire 1 ." music_final[0]~0_combout $end
$var wire 1 /" u_music_mem|note_rom_rtl_0|auto_generated|ram_block1a1 $end
$var wire 1 0" music_final[1]~1_combout $end
$var wire 1 1" u_music_mem|note_rom_rtl_0|auto_generated|ram_block1a2 $end
$var wire 1 2" music_final[2]~2_combout $end
$var wire 1 3" u_music_mem|note_rom_rtl_0|auto_generated|ram_block1a3 $end
$var wire 1 4" music_final[3]~4_combout $end
$var wire 1 5" u_lev_ctl|WideOr0~0_combout $end
$var wire 1 6" u_lev_ctl|WideOr0~1_combout $end
$var wire 1 7" u_wave_gen|div_cnt[0]~11_combout $end
$var wire 1 8" u_wave_gen|div_cnt[0]~12 $end
$var wire 1 9" u_wave_gen|div_cnt[1]~13_combout $end
$var wire 1 :" u_wave_gen|div_cnt[1]~14 $end
$var wire 1 ;" u_wave_gen|div_cnt[2]~15_combout $end
$var wire 1 <" u_wave_gen|div_cnt[2]~16 $end
$var wire 1 =" u_wave_gen|div_cnt[3]~17_combout $end
$var wire 1 >" u_wave_gen|div_cnt[3]~18 $end
$var wire 1 ?" u_wave_gen|div_cnt[4]~19_combout $end
$var wire 1 @" u_wave_gen|div_cnt[4]~20 $end
$var wire 1 A" u_wave_gen|div_cnt[5]~21_combout $end
$var wire 1 B" u_wave_gen|div_cnt[5]~22 $end
$var wire 1 C" u_wave_gen|div_cnt[6]~23_combout $end
$var wire 1 D" u_wave_gen|div_cnt[6]~24 $end
$var wire 1 E" u_wave_gen|div_cnt[7]~25_combout $end
$var wire 1 F" u_wave_gen|div_cnt[7]~26 $end
$var wire 1 G" u_wave_gen|div_cnt[8]~27_combout $end
$var wire 1 H" u_wave_gen|div_cnt[8]~28 $end
$var wire 1 I" u_wave_gen|div_cnt[9]~29_combout $end
$var wire 1 J" u_wave_gen|div_cnt[9]~30 $end
$var wire 1 K" u_wave_gen|div_cnt[10]~31_combout $end
$var wire 1 L" u_lev_ctl|WideOr2~1_combout $end
$var wire 1 M" u_lev_ctl|WideOr2~0_combout $end
$var wire 1 N" u_lev_ctl|WideOr2~2_combout $end
$var wire 1 O" u_lev_ctl|WideOr1~0_combout $end
$var wire 1 P" u_lev_ctl|WideOr1~1_combout $end
$var wire 1 Q" u_wave_gen|Equal1~5_combout $end
$var wire 1 R" u_lev_ctl|WideOr4~0_combout $end
$var wire 1 S" u_lev_ctl|WideOr4~1_combout $end
$var wire 1 T" u_lev_ctl|WideOr4~2_combout $end
$var wire 1 U" u_lev_ctl|WideOr3~0_combout $end
$var wire 1 V" u_lev_ctl|WideOr3~1_combout $end
$var wire 1 W" u_lev_ctl|WideOr3~2_combout $end
$var wire 1 X" u_wave_gen|Equal1~3_combout $end
$var wire 1 Y" u_lev_ctl|WideOr6~0_combout $end
$var wire 1 Z" u_lev_ctl|WideOr6~1_combout $end
$var wire 1 [" u_lev_ctl|WideOr6~2_combout $end
$var wire 1 \" u_lev_ctl|WideOr5~0_combout $end
$var wire 1 ]" u_lev_ctl|WideOr5~1_combout $end
$var wire 1 ^" u_wave_gen|Equal1~2_combout $end
$var wire 1 _" u_lev_ctl|WideOr10~0_combout $end
$var wire 1 `" u_lev_ctl|WideOr10~1_combout $end
$var wire 1 a" u_lev_ctl|WideOr9~0_combout $end
$var wire 1 b" u_lev_ctl|WideOr9~1_combout $end
$var wire 1 c" u_lev_ctl|WideOr9~2_combout $end
$var wire 1 d" u_wave_gen|Equal1~0_combout $end
$var wire 1 e" u_lev_ctl|WideOr8~0_combout $end
$var wire 1 f" u_lev_ctl|WideOr8~1_combout $end
$var wire 1 g" u_lev_ctl|WideOr8~2_combout $end
$var wire 1 h" u_lev_ctl|WideOr7~0_combout $end
$var wire 1 i" u_lev_ctl|WideOr7~1_combout $end
$var wire 1 j" u_wave_gen|Equal1~1_combout $end
$var wire 1 k" u_wave_gen|Equal1~4_combout $end
$var wire 1 l" u_wave_gen|Equal1~6_combout $end
$var wire 1 m" u_wave_gen|Equal0~0_combout $end
$var wire 1 n" u_wave_gen|Equal0~1_combout $end
$var wire 1 o" u_wave_gen|Equal0~2_combout $end
$var wire 1 p" u_wave_gen|been~0_combout $end
$var wire 1 q" u_wave_gen|been~q $end
$var wire 1 r" Mux1~0_combout $end
$var wire 1 s" u_shuma|Decoder0~0_combout $end
$var wire 1 t" flash_counter[0]~16_combout $end
$var wire 1 u" Equal6~0_combout $end
$var wire 1 v" Equal5~0_combout $end
$var wire 1 w" Equal5~1_combout $end
$var wire 1 x" Equal5~2_combout $end
$var wire 1 y" note_changed~0_combout $end
$var wire 1 z" note_changed~q $end
$var wire 1 {" flash_counter[0]~17 $end
$var wire 1 |" flash_counter[1]~18_combout $end
$var wire 1 }" flash_counter[1]~19 $end
$var wire 1 ~" flash_counter[2]~20_combout $end
$var wire 1 !# flash_counter[2]~21 $end
$var wire 1 "# flash_counter[3]~22_combout $end
$var wire 1 ## flash_counter[3]~23 $end
$var wire 1 $# flash_counter[4]~24_combout $end
$var wire 1 %# flash_counter[4]~25 $end
$var wire 1 &# flash_counter[5]~26_combout $end
$var wire 1 '# flash_counter[5]~27 $end
$var wire 1 (# flash_counter[6]~28_combout $end
$var wire 1 )# flash_counter[6]~29 $end
$var wire 1 *# flash_counter[7]~30_combout $end
$var wire 1 +# flash_counter[7]~31 $end
$var wire 1 ,# flash_counter[8]~32_combout $end
$var wire 1 -# flash_counter[8]~33 $end
$var wire 1 .# flash_counter[9]~34_combout $end
$var wire 1 /# flash_counter[9]~35 $end
$var wire 1 0# flash_counter[10]~36_combout $end
$var wire 1 1# flash_counter[10]~37 $end
$var wire 1 2# flash_counter[11]~38_combout $end
$var wire 1 3# flash_counter[11]~39 $end
$var wire 1 4# flash_counter[12]~40_combout $end
$var wire 1 5# flash_counter[12]~41 $end
$var wire 1 6# flash_counter[13]~42_combout $end
$var wire 1 7# flash_counter[13]~43 $end
$var wire 1 8# flash_counter[14]~44_combout $end
$var wire 1 9# flash_counter[14]~45 $end
$var wire 1 :# flash_counter[15]~46_combout $end
$var wire 1 ;# led_flash_reg~2_combout $end
$var wire 1 <# led_flash_reg~3_combout $end
$var wire 1 =# led_flash_reg~4_combout $end
$var wire 1 ># led_flash_reg~0_combout $end
$var wire 1 ?# led_flash_reg~1_combout $end
$var wire 1 @# led_flash_reg~5_combout $end
$var wire 1 A# led_flash_reg~q $end
$var wire 1 B# u_speed_ctrl|count [25] $end
$var wire 1 C# u_speed_ctrl|count [24] $end
$var wire 1 D# u_speed_ctrl|count [23] $end
$var wire 1 E# u_speed_ctrl|count [22] $end
$var wire 1 F# u_speed_ctrl|count [21] $end
$var wire 1 G# u_speed_ctrl|count [20] $end
$var wire 1 H# u_speed_ctrl|count [19] $end
$var wire 1 I# u_speed_ctrl|count [18] $end
$var wire 1 J# u_speed_ctrl|count [17] $end
$var wire 1 K# u_speed_ctrl|count [16] $end
$var wire 1 L# u_speed_ctrl|count [15] $end
$var wire 1 M# u_speed_ctrl|count [14] $end
$var wire 1 N# u_speed_ctrl|count [13] $end
$var wire 1 O# u_speed_ctrl|count [12] $end
$var wire 1 P# u_speed_ctrl|count [11] $end
$var wire 1 Q# u_speed_ctrl|count [10] $end
$var wire 1 R# u_speed_ctrl|count [9] $end
$var wire 1 S# u_speed_ctrl|count [8] $end
$var wire 1 T# u_speed_ctrl|count [7] $end
$var wire 1 U# u_speed_ctrl|count [6] $end
$var wire 1 V# u_speed_ctrl|count [5] $end
$var wire 1 W# u_speed_ctrl|count [4] $end
$var wire 1 X# u_speed_ctrl|count [3] $end
$var wire 1 Y# u_speed_ctrl|count [2] $end
$var wire 1 Z# u_speed_ctrl|count [1] $end
$var wire 1 [# u_speed_ctrl|count [0] $end
$var wire 1 \# clk_div [4] $end
$var wire 1 ]# clk_div [3] $end
$var wire 1 ^# clk_div [2] $end
$var wire 1 _# clk_div [1] $end
$var wire 1 `# clk_div [0] $end
$var wire 1 a# song_offset [9] $end
$var wire 1 b# song_offset [8] $end
$var wire 1 c# song_offset [7] $end
$var wire 1 d# song_offset [6] $end
$var wire 1 e# song_offset [5] $end
$var wire 1 f# song_offset [4] $end
$var wire 1 g# song_offset [3] $end
$var wire 1 h# song_offset [2] $end
$var wire 1 i# song_offset [1] $end
$var wire 1 j# song_offset [0] $end
$var wire 1 k# state [1] $end
$var wire 1 l# state [0] $end
$var wire 1 m# u_wave_gen|div_cnt [10] $end
$var wire 1 n# u_wave_gen|div_cnt [9] $end
$var wire 1 o# u_wave_gen|div_cnt [8] $end
$var wire 1 p# u_wave_gen|div_cnt [7] $end
$var wire 1 q# u_wave_gen|div_cnt [6] $end
$var wire 1 r# u_wave_gen|div_cnt [5] $end
$var wire 1 s# u_wave_gen|div_cnt [4] $end
$var wire 1 t# u_wave_gen|div_cnt [3] $end
$var wire 1 u# u_wave_gen|div_cnt [2] $end
$var wire 1 v# u_wave_gen|div_cnt [1] $end
$var wire 1 w# u_wave_gen|div_cnt [0] $end
$var wire 1 x# prev_music [4] $end
$var wire 1 y# prev_music [3] $end
$var wire 1 z# prev_music [2] $end
$var wire 1 {# prev_music [1] $end
$var wire 1 |# prev_music [0] $end
$var wire 1 }# u_lev_ctl|wave_cnt_max [10] $end
$var wire 1 ~# u_lev_ctl|wave_cnt_max [9] $end
$var wire 1 !$ u_lev_ctl|wave_cnt_max [8] $end
$var wire 1 "$ u_lev_ctl|wave_cnt_max [7] $end
$var wire 1 #$ u_lev_ctl|wave_cnt_max [6] $end
$var wire 1 $$ u_lev_ctl|wave_cnt_max [5] $end
$var wire 1 %$ u_lev_ctl|wave_cnt_max [4] $end
$var wire 1 &$ u_lev_ctl|wave_cnt_max [3] $end
$var wire 1 '$ u_lev_ctl|wave_cnt_max [2] $end
$var wire 1 ($ u_lev_ctl|wave_cnt_max [1] $end
$var wire 1 )$ u_lev_ctl|wave_cnt_max [0] $end
$var wire 1 *$ u_debounce|debounce_cnt [19] $end
$var wire 1 +$ u_debounce|debounce_cnt [18] $end
$var wire 1 ,$ u_debounce|debounce_cnt [17] $end
$var wire 1 -$ u_debounce|debounce_cnt [16] $end
$var wire 1 .$ u_debounce|debounce_cnt [15] $end
$var wire 1 /$ u_debounce|debounce_cnt [14] $end
$var wire 1 0$ u_debounce|debounce_cnt [13] $end
$var wire 1 1$ u_debounce|debounce_cnt [12] $end
$var wire 1 2$ u_debounce|debounce_cnt [11] $end
$var wire 1 3$ u_debounce|debounce_cnt [10] $end
$var wire 1 4$ u_debounce|debounce_cnt [9] $end
$var wire 1 5$ u_debounce|debounce_cnt [8] $end
$var wire 1 6$ u_debounce|debounce_cnt [7] $end
$var wire 1 7$ u_debounce|debounce_cnt [6] $end
$var wire 1 8$ u_debounce|debounce_cnt [5] $end
$var wire 1 9$ u_debounce|debounce_cnt [4] $end
$var wire 1 :$ u_debounce|debounce_cnt [3] $end
$var wire 1 ;$ u_debounce|debounce_cnt [2] $end
$var wire 1 <$ u_debounce|debounce_cnt [1] $end
$var wire 1 =$ u_debounce|debounce_cnt [0] $end
$var wire 1 >$ u_speed_ctrl|cnt [9] $end
$var wire 1 ?$ u_speed_ctrl|cnt [8] $end
$var wire 1 @$ u_speed_ctrl|cnt [7] $end
$var wire 1 A$ u_speed_ctrl|cnt [6] $end
$var wire 1 B$ u_speed_ctrl|cnt [5] $end
$var wire 1 C$ u_speed_ctrl|cnt [4] $end
$var wire 1 D$ u_speed_ctrl|cnt [3] $end
$var wire 1 E$ u_speed_ctrl|cnt [2] $end
$var wire 1 F$ u_speed_ctrl|cnt [1] $end
$var wire 1 G$ u_speed_ctrl|cnt [0] $end
$var wire 1 H$ flash_counter [15] $end
$var wire 1 I$ flash_counter [14] $end
$var wire 1 J$ flash_counter [13] $end
$var wire 1 K$ flash_counter [12] $end
$var wire 1 L$ flash_counter [11] $end
$var wire 1 M$ flash_counter [10] $end
$var wire 1 N$ flash_counter [9] $end
$var wire 1 O$ flash_counter [8] $end
$var wire 1 P$ flash_counter [7] $end
$var wire 1 Q$ flash_counter [6] $end
$var wire 1 R$ flash_counter [5] $end
$var wire 1 S$ flash_counter [4] $end
$var wire 1 T$ flash_counter [3] $end
$var wire 1 U$ flash_counter [2] $end
$var wire 1 V$ flash_counter [1] $end
$var wire 1 W$ flash_counter [0] $end
$var wire 1 X$ u_music_mem|note_rom_rtl_0|auto_generated|ram_block1a0_PORTADATAOUT_bus [8] $end
$var wire 1 Y$ u_music_mem|note_rom_rtl_0|auto_generated|ram_block1a0_PORTADATAOUT_bus [7] $end
$var wire 1 Z$ u_music_mem|note_rom_rtl_0|auto_generated|ram_block1a0_PORTADATAOUT_bus [6] $end
$var wire 1 [$ u_music_mem|note_rom_rtl_0|auto_generated|ram_block1a0_PORTADATAOUT_bus [5] $end
$var wire 1 \$ u_music_mem|note_rom_rtl_0|auto_generated|ram_block1a0_PORTADATAOUT_bus [4] $end
$var wire 1 ]$ u_music_mem|note_rom_rtl_0|auto_generated|ram_block1a0_PORTADATAOUT_bus [3] $end
$var wire 1 ^$ u_music_mem|note_rom_rtl_0|auto_generated|ram_block1a0_PORTADATAOUT_bus [2] $end
$var wire 1 _$ u_music_mem|note_rom_rtl_0|auto_generated|ram_block1a0_PORTADATAOUT_bus [1] $end
$var wire 1 `$ u_music_mem|note_rom_rtl_0|auto_generated|ram_block1a0_PORTADATAOUT_bus [0] $end
$upscope $end
$upscope $end
$enddefinitions $end
#0
$dumpvars
0!
0"
0#
0$
0%
0,
1+
1*
1)
1(
1'
1&
x-
0.
1/
x0
11
12
13
04
05
16
17
18
19
1:
1;
0<
0=
0>
1?
0@
0A
0B
1C
0D
0E
1F
0G
0H
0I
0J
0K
0L
0M
0N
0O
0P
1Q
0R
1S
0T
0U
0V
0W
0X
1Y
0Z
1[
1\
1]
1^
1_
1`
0a
0b
1c
1d
1e
0f
1g
1h
1i
0j
1k
1l
1m
0n
1o
1p
1q
0r
1s
1t
1u
0v
1w
1x
1y
0z
1{
1|
1}
0~
1!!
1"!
1#!
0$!
1%!
1&!
1'!
1(!
0)!
0*!
0+!
1,!
0-!
1.!
0/!
00!
11!
02!
03!
14!
05!
06!
07!
18!
09!
0:!
0;!
1<!
0=!
0>!
0?!
1@!
0A!
0B!
0C!
1D!
0E!
0F!
0G!
1H!
0I!
0J!
0K!
1L!
0M!
0N!
0O!
1P!
0Q!
0R!
0S!
1T!
0U!
0V!
0W!
1X!
0Y!
0Z!
0[!
1\!
1]!
0^!
0_!
0`!
1a!
0b!
0c!
0d!
1e!
1f!
1g!
1h!
1i!
0j!
1k!
1l!
0m!
0n!
1o!
1p!
0q!
1r!
1s!
0t!
0u!
0v!
1w!
0x!
0y!
0z!
1{!
0|!
0}!
0~!
1!"
0""
0#"
0$"
1%"
1&"
1'"
1("
0)"
0*"
0+"
0,"
0-"
0."
0/"
00"
01"
02"
03"
04"
05"
06"
17"
08"
09"
1:"
0;"
0<"
0="
1>"
0?"
0@"
0A"
1B"
0C"
0D"
0E"
1F"
0G"
0H"
0I"
1J"
0K"
0L"
0M"
0N"
0O"
0P"
1Q"
0R"
0S"
0T"
0U"
0V"
0W"
1X"
0Y"
0Z"
0["
0\"
0]"
1^"
0_"
0`"
0a"
0b"
0c"
1d"
0e"
0f"
0g"
0h"
0i"
1j"
1k"
1l"
1m"
1n"
1o"
0p"
0q"
1r"
0s"
1t"
1u"
1v"
1w"
1x"
0y"
0z"
0{"
1|"
1}"
1~"
0!#
1"#
1##
1$#
0%#
1&#
1'#
1(#
0)#
1*#
1+#
1,#
0-#
1.#
1/#
10#
01#
12#
13#
14#
05#
16#
17#
18#
09#
1:#
0;#
0<#
0=#
0>#
0?#
0@#
0A#
0[#
0Z#
0Y#
0X#
0W#
0V#
0U#
0T#
0S#
0R#
0Q#
0P#
0O#
0N#
0M#
0L#
0K#
0J#
0I#
0H#
0G#
0F#
0E#
0D#
0C#
0B#
0`#
0_#
0^#
0]#
0\#
zj#
zi#
zh#
zg#
zf#
ze#
zd#
zc#
zb#
0a#
0l#
0k#
0w#
0v#
0u#
0t#
0s#
0r#
0q#
0p#
0o#
0n#
0m#
0|#
0{#
0z#
0y#
0x#
0)$
0($
0'$
0&$
0%$
0$$
0#$
0"$
0!$
0~#
0}#
0=$
0<$
0;$
0:$
09$
08$
07$
06$
05$
04$
03$
02$
01$
00$
0/$
0.$
0-$
0,$
0+$
0*$
0G$
0F$
0E$
0D$
0C$
0B$
0A$
0@$
0?$
0>$
0W$
0V$
0U$
0T$
0S$
0R$
0Q$
0P$
0O$
0N$
0M$
0L$
0K$
0J$
0I$
0H$
0`$
0_$
0^$
0]$
0\$
0[$
0Z$
0Y$
0X$
$end
#500
1"
1=
1>
0-
#1000
0"
0=
0>
1-
#1500
1"
1=
1>
0-
#2000
0"
0=
0>
1-
#2500
1"
1=
1>
0-
#3000
0"
0=
0>
1-
#3500
1"
1=
1>
0-
#4000
0"
0=
0>
1-
#4500
1"
1=
1>
0-
#5000
0"
0=
0>
1-
#5500
1"
1=
1>
0-
#6000
0"
0=
0>
1-
#6500
1"
1=
1>
0-
#7000
0"
0=
0>
1-
#7500
1"
1=
1>
0-
#8000
0"
0=
0>
1-
#8500
1"
1=
1>
0-
#9000
0"
0=
0>
1-
#9500
1"
1=
1>
0-
#10000
0"
0=
0>
1-
#10500
1"
1=
1>
0-
#11000
0"
0=
0>
1-
#11500
1"
1=
1>
0-
#12000
0"
0=
0>
1-
#12500
1"
1=
1>
0-
#13000
0"
0=
0>
1-
#13500
1"
1=
1>
0-
#14000
0"
0=
0>
1-
#14500
1"
1=
1>
0-
#15000
0"
0=
0>
1-
#15500
1"
1=
1>
0-
#16000
0"
0=
0>
1-
#16500
1"
1=
1>
0-
#17000
0"
0=
0>
1-
#17500
1"
1=
1>
0-
#18000
0"
0=
0>
1-
#18500
1"
1=
1>
0-
#19000
0"
0=
0>
1-
#19500
1"
1=
1>
0-
#20000
0"
0=
0>
1-
#20500
1"
1=
1>
0-
#21000
0"
0=
0>
1-
#21500
1"
1=
1>
0-
#22000
0"
0=
0>
1-
#22500
1"
1=
1>
0-
#23000
0"
0=
0>
1-
#23500
1"
1=
1>
0-
#24000
0"
0=
0>
1-
#24500
1"
1=
1>
0-
#25000
0"
0=
0>
1-
#25500
1"
1=
1>
0-
#26000
0"
0=
0>
1-
#26500
1"
1=
1>
0-
#27000
0"
0=
0>
1-
#27500
1"
1=
1>
0-
#28000
0"
0=
0>
1-
#28500
1"
1=
1>
0-
#29000
0"
0=
0>
1-
#29500
1"
1=
1>
0-
#30000
0"
0=
0>
1-
