speed_ctrl/simulation/qsim/speed_ctrl.msim.vcd
$comment
	File created using the following command:
		vcd file speed_ctrl.msim.vcd -direction
$end
$date
	Sat Jun 21 17:23:18 2025
$end
$version
	ModelSim Version 10.1d
$end
$timescale
	1ps
$end
$scope module speed_ctrl_vlg_vec_tst $end
$var reg 1 ! clk $end
$var reg 1 " rst_cnt $end
$var reg 1 # rst_n $end
$var wire 1 $ cnt [9] $end
$var wire 1 % cnt [8] $end
$var wire 1 & cnt [7] $end
$var wire 1 ' cnt [6] $end
$var wire 1 ( cnt [5] $end
$var wire 1 ) cnt [4] $end
$var wire 1 * cnt [3] $end
$var wire 1 + cnt [2] $end
$var wire 1 , cnt [1] $end
$var wire 1 - cnt [0] $end
$var wire 1 . sampler $end
$scope module i1 $end
$var wire 1 / gnd $end
$var wire 1 0 vcc $end
$var wire 1 1 unknown $end
$var tri1 1 2 devclrn $end
$var tri1 1 3 devpor $end
$var tri1 1 4 devoe $end
$var wire 1 5 cnt[0]~output_o $end
$var wire 1 6 cnt[1]~output_o $end
$var wire 1 7 cnt[2]~output_o $end
$var wire 1 8 cnt[3]~output_o $end
$var wire 1 9 cnt[4]~output_o $end
$var wire 1 : cnt[5]~output_o $end
$var wire 1 ; cnt[6]~output_o $end
$var wire 1 < cnt[7]~output_o $end
$var wire 1 = cnt[8]~output_o $end
$var wire 1 > cnt[9]~output_o $end
$var wire 1 ? clk~input_o $end
$var wire 1 @ clk~inputclkctrl_outclk $end
$var wire 1 A cnt[0]~10_combout $end
$var wire 1 B rst_n~input_o $end
$var wire 1 C rst_n~inputclkctrl_outclk $end
$var wire 1 D cnt[0]~11 $end
$var wire 1 E cnt[1]~14_combout $end
$var wire 1 F count[0]~26_combout $end
$var wire 1 G LessThan0~0_combout $end
$var wire 1 H LessThan0~1_combout $end
$var wire 1 I Equal0~2_combout $end
$var wire 1 J Equal0~0_combout $end
$var wire 1 K LessThan0~6_combout $end
$var wire 1 L LessThan0~7_combout $end
$var wire 1 M count[0]~27 $end
$var wire 1 N count[1]~28_combout $end
$var wire 1 O count[1]~29 $end
$var wire 1 P count[2]~30_combout $end
$var wire 1 Q count[2]~31 $end
$var wire 1 R count[3]~32_combout $end
$var wire 1 S count[3]~33 $end
$var wire 1 T count[4]~34_combout $end
$var wire 1 U count[4]~35 $end
$var wire 1 V count[5]~36_combout $end
$var wire 1 W count[5]~37 $end
$var wire 1 X count[6]~38_combout $end
$var wire 1 Y count[6]~39 $end
$var wire 1 Z count[7]~40_combout $end
$var wire 1 [ count[7]~41 $end
$var wire 1 \ count[8]~42_combout $end
$var wire 1 ] count[8]~43 $end
$var wire 1 ^ count[9]~44_combout $end
$var wire 1 _ count[9]~45 $end
$var wire 1 ` count[10]~46_combout $end
$var wire 1 a count[10]~47 $end
$var wire 1 b count[11]~48_combout $end
$var wire 1 c count[11]~49 $end
$var wire 1 d count[12]~50_combout $end
$var wire 1 e count[12]~51 $end
$var wire 1 f count[13]~52_combout $end
$var wire 1 g count[13]~53 $end
$var wire 1 h count[14]~54_combout $end
$var wire 1 i count[14]~55 $end
$var wire 1 j count[15]~56_combout $end
$var wire 1 k count[15]~57 $end
$var wire 1 l count[16]~58_combout $end
$var wire 1 m count[16]~59 $end
$var wire 1 n count[17]~60_combout $end
$var wire 1 o count[17]~61 $end
$var wire 1 p count[18]~62_combout $end
$var wire 1 q count[18]~63 $end
$var wire 1 r count[19]~64_combout $end
$var wire 1 s count[19]~65 $end
$var wire 1 t count[20]~66_combout $end
$var wire 1 u count[20]~67 $end
$var wire 1 v count[21]~68_combout $end
$var wire 1 w LessThan0~3_combout $end
$var wire 1 x LessThan0~2_combout $end
$var wire 1 y count[21]~69 $end
$var wire 1 z count[22]~70_combout $end
$var wire 1 { count[22]~71 $end
$var wire 1 | count[23]~72_combout $end
$var wire 1 } count[23]~73 $end
$var wire 1 ~ count[24]~74_combout $end
$var wire 1 !! count[24]~75 $end
$var wire 1 "! count[25]~76_combout $end
$var wire 1 #! LessThan0~4_combout $end
$var wire 1 $! LessThan0~5_combout $end
$var wire 1 %! rst_cnt~input_o $end
$var wire 1 &! Equal0~1_combout $end
$var wire 1 '! cnt[1]~13_combout $end
$var wire 1 (! cnt[1]~reg0_q $end
$var wire 1 )! cnt[1]~15 $end
$var wire 1 *! cnt[2]~16_combout $end
$var wire 1 +! cnt[2]~reg0_q $end
$var wire 1 ,! cnt[2]~17 $end
$var wire 1 -! cnt[3]~18_combout $end
$var wire 1 .! cnt[3]~reg0_q $end
$var wire 1 /! cnt[3]~19 $end
$var wire 1 0! cnt[4]~20_combout $end
$var wire 1 1! cnt[4]~reg0_q $end
$var wire 1 2! cnt[4]~21 $end
$var wire 1 3! cnt[5]~22_combout $end
$var wire 1 4! cnt[5]~reg0_q $end
$var wire 1 5! cnt[5]~23 $end
$var wire 1 6! cnt[6]~24_combout $end
$var wire 1 7! cnt[6]~reg0_q $end
$var wire 1 8! cnt[6]~25 $end
$var wire 1 9! cnt[7]~26_combout $end
$var wire 1 :! cnt[7]~reg0_q $end
$var wire 1 ;! cnt[7]~27 $end
$var wire 1 <! cnt[8]~28_combout $end
$var wire 1 =! cnt[8]~reg0_q $end
$var wire 1 >! cnt[8]~29 $end
$var wire 1 ?! cnt[9]~30_combout $end
$var wire 1 @! cnt[9]~reg0_q $end
$var wire 1 A! Equal1~2_combout $end
$var wire 1 B! Equal1~0_combout $end
$var wire 1 C! Equal1~1_combout $end
$var wire 1 D! cnt[1]~12_combout $end
$var wire 1 E! cnt[0]~reg0_q $end
$var wire 1 F! count [25] $end
$var wire 1 G! count [24] $end
$var wire 1 H! count [23] $end
$var wire 1 I! count [22] $end
$var wire 1 J! count [21] $end
$var wire 1 K! count [20] $end
$var wire 1 L! count [19] $end
$var wire 1 M! count [18] $end
$var wire 1 N! count [17] $end
$var wire 1 O! count [16] $end
$var wire 1 P! count [15] $end
$var wire 1 Q! count [14] $end
$var wire 1 R! count [13] $end
$var wire 1 S! count [12] $end
$var wire 1 T! count [11] $end
$var wire 1 U! count [10] $end
$var wire 1 V! count [9] $end
$var wire 1 W! count [8] $end
$var wire 1 X! count [7] $end
$var wire 1 Y! count [6] $end
$var wire 1 Z! count [5] $end
$var wire 1 [! count [4] $end
$var wire 1 \! count [3] $end
$var wire 1 ]! count [2] $end
$var wire 1 ^! count [1] $end
$var wire 1 _! count [0] $end
$upscope $end
$upscope $end
$enddefinitions $end
#0
$dumpvars
0!
1"
0#
0-
0,
0+
0*
0)
0(
0'
0&
0%
0$
x.
0/
10
x1
12
13
14
05
06
07
08
09
0:
0;
0<
0=
0>
0?
0@
1A
0B
0C
0D
0E
1F
1G
1H
0I
0J
0K
0L
0M
0N
1O
0P
0Q
0R
1S
0T
0U
0V
1W
0X
0Y
0Z
1[
0\
0]
0^
1_
0`
0a
0b
1c
0d
0e
0f
1g
0h
0i
0j
1k
0l
0m
0n
1o
0p
0q
0r
1s
0t
0u
0v
1w
1x
1y
0z
0{
0|
1}
0~
0!!
0"!
1#!
1$!
1%!
1&!
1'!
0(!
1)!
0*!
0+!
0,!
0-!
0.!
1/!
00!
01!
02!
03!
04!
15!
06!
07!
08!
09!
0:!
1;!
0<!
0=!
0>!
0?!
0@!
1A!
1B!
1C!
1D!
0E!
0_!
0^!
0]!
0\!
0[!
0Z!
0Y!
0X!
0W!
0V!
0U!
0T!
0S!
0R!
0Q!
0P!
0O!
0N!
0M!
0L!
0K!
0J!
0I!
0H!
0G!
0F!
$end
#5000
1!
1?
1@
0.
#10000
1#
0!
1B
0?
1C
0@
1.
#15000
1!
1?
1@
0.
1_!
1M
0F
1N
#20000
0!
0?
0@
1.
#25000
1!
1?
1@
0.
1^!
0_!
0O
0N
0M
1F
1P
1O
1N
0P
#30000
0!
0?
0@
1.
#35000
1!
1?
1@
0.
1_!
1M
0F
0O
0N
1P
#40000
0!
0?
0@
1.
#45000
1!
1?
1@
0.
1]!
0^!
0_!
1Q
0P
1O
1N
0M
1F
1R
0Q
1P
0N
0R
#50000
0!
0?
0@
1.
#55000
1!
1?
1@
0.
1_!
1M
0F
1N
#60000
0!
0?
0@
1.
#65000
1!
1?
1@
0.
1^!
0_!
0O
0N
0M
1F
1Q
0P
1O
1N
1R
0Q
1P
0R
#70000
0!
0?
0@
1.
#75000
1!
1?
1@
0.
1_!
1M
0F
0O
0N
1Q
0P
1R
#80000
0!
0?
0@
1.
#85000
1!
1?
1@
0.
1\!
0]!
0^!
0_!
0S
0R
0Q
1P
1O
1N
0M
1F
1T
1S
1R
0P
0N
0T
#90000
0!
0?
0@
1.
#95000
1!
1?
1@
0.
1_!
1M
0F
1N
#100000
0!
0?
0@
1.
#105000
1!
1?
1@
0.
1^!
0_!
0O
0N
0M
1F
1P
1O
1N
0P
#110000
0!
0?
0@
1.
#115000
1!
1?
1@
0.
1_!
1M
0F
0O
0N
1P
#120000
0!
0?
0@
1.
#125000
1!
1?
1@
0.
1]!
0^!
0_!
1Q
0P
1O
1N
0M
1F
0S
0R
0Q
1P
0N
1T
1S
1R
0T
#130000
0!
0?
0@
1.
#135000
1!
1?
1@
0.
1_!
1M
0F
1N
#140000
0!
0?
0@
1.
#145000
1!
1?
1@
0.
1^!
0_!
0O
0N
0M
1F
1Q
0P
1O
1N
0S
0R
0Q
1P
1T
1S
1R
0T
#150000
0!
0?
0@
1.
#155000
1!
1?
1@
0.
1_!
1I
1M
0F
0O
0N
1Q
0P
0S
0R
1T
#160000
0!
0?
0@
1.
#165000
1!
1?
1@
0.
1[!
0\!
0]!
0^!
0_!
1U
0T
0G
1S
1R
0I
0Q
1P
1O
1N
0M
1F
1V
0H
0U
1T
0R
0P
0N
0V
#170000
0!
0?
0@
1.
#175000
1!
1?
1@
0.
1_!
1M
0F
1N
#180000
0!
0?
0@
1.
#185000
1!
1?
1@
0.
1^!
0_!
0O
0N
0M
1F
1P
1O
1N
0P
#190000
0!
0?
0@
1.
#195000
1!
1?
1@
0.
1_!
1M
0F
0O
0N
1P
#200000
0!
0?
0@
1.
#205000
1!
1?
1@
0.
1]!
0^!
0_!
1Q
0P
1O
1N
0M
1F
1R
0Q
1P
0N
0R
#210000
0!
0?
0@
1.
#215000
1!
1?
1@
0.
1_!
1M
0F
1N
#220000
0!
0?
0@
1.
#225000
1!
1?
1@
0.
1^!
0_!
0O
0N
0M
1F
1Q
0P
1O
1N
1R
0Q
1P
0R
#230000
0!
0?
0@
1.
#235000
1!
1?
1@
0.
1_!
1M
0F
0O
0N
1Q
0P
1R
#240000
0!
0?
0@
1.
#245000
1!
1?
1@
0.
1\!
0]!
0^!
0_!
0S
0R
0Q
1P
1O
1N
0M
1F
1U
0T
1S
1R
0P
0N
1V
0U
1T
0V
#250000
0!
0?
0@
1.
#255000
1!
1?
1@
0.
1_!
1M
0F
1N
#260000
0!
0?
0@
1.
#265000
1!
1?
1@
0.
1^!
0_!
0O
0N
0M
1F
1P
1O
1N
0P
#270000
0!
0?
0@
1.
#275000
1!
1?
1@
0.
1_!
1M
0F
0O
0N
1P
#280000
0!
0?
0@
1.
#285000
1!
1?
1@
0.
1]!
0^!
0_!
1Q
0P
1O
1N
0M
1F
0S
0R
0Q
1P
0N
1U
0T
1S
1R
1V
0U
1T
0V
#290000
0!
0?
0@
1.
#295000
1!
1?
1@
0.
1_!
1M
0F
1N
#300000
0!
0?
0@
1.
#305000
1!
1?
1@
0.
1^!
0_!
0O
0N
0M
1F
1Q
0P
1O
1N
0S
0R
0Q
1P
1U
0T
1S
1R
1V
0U
1T
0V
#310000
0!
0?
0@
1.
#315000
1!
1?
1@
0.
1_!
1I
1M
0F
0O
0N
1Q
0P
0S
0R
1U
0T
1V
#320000
0!
0?
0@
1.
#325000
1!
1?
1@
0.
1Z!
0[!
0\!
0]!
0^!
0_!
0W
0V
0U
1T
1S
1R
0I
0Q
1P
1O
1N
0M
1F
1X
1W
1V
0T
0R
0P
0N
0X
#330000
0!
0?
0@
1.
#335000
1!
1?
1@
0.
1_!
1M
0F
1N
#340000
0!
0?
0@
1.
#345000
1!
1?
1@
0.
1^!
0_!
0O
0N
0M
1F
1P
1O
1N
0P
#350000
0!
0?
0@
1.
#355000
1!
1?
1@
0.
1_!
1M
0F
0O
0N
1P
#360000
0!
0?
0@
1.
#365000
1!
1?
1@
0.
1]!
0^!
0_!
1Q
0P
1O
1N
0M
1F
1R
0Q
1P
0N
0R
#370000
0!
0?
0@
1.
#375000
1!
1?
1@
0.
1_!
1M
0F
1N
#380000
0!
0?
0@
1.
#385000
1!
1?
1@
0.
1^!
0_!
0O
0N
0M
1F
1Q
0P
1O
1N
1R
0Q
1P
0R
#390000
0!
0?
0@
1.
#395000
1!
1?
1@
0.
1_!
1M
0F
0O
0N
1Q
0P
1R
#400000
0!
0?
0@
1.
#405000
1!
1?
1@
0.
1\!
0]!
0^!
0_!
0S
0R
0Q
1P
1O
1N
0M
1F
1T
1S
1R
0P
0N
0T
#410000
0!
0?
0@
1.
#415000
1!
1?
1@
0.
1_!
1M
0F
1N
#420000
0!
0?
0@
1.
#425000
1!
1?
1@
0.
1^!
0_!
0O
0N
0M
1F
1P
1O
1N
0P
#430000
0!
0?
0@
1.
#435000
1!
1?
1@
0.
1_!
1M
0F
0O
0N
1P
#440000
0!
0?
0@
1.
#445000
1!
1?
1@
0.
1]!
0^!
0_!
1Q
0P
1O
1N
0M
1F
0S
0R
0Q
1P
0N
1T
1S
1R
0T
#450000
0!
0?
0@
1.
#455000
1!
1?
1@
0.
1_!
1M
0F
1N
#460000
0!
0?
0@
1.
#465000
1!
1?
1@
0.
1^!
0_!
0O
0N
0M
1F
1Q
0P
1O
1N
0S
0R
0Q
1P
1T
1S
1R
0T
#470000
0!
0?
0@
1.
#475000
1!
1?
1@
0.
1_!
1I
1M
0F
0O
0N
1Q
0P
0S
0R
1T
#480000
0!
0?
0@
1.
#485000
1!
1?
1@
0.
1[!
0\!
0]!
0^!
0_!
1U
0T
1S
1R
0I
0Q
1P
1O
1N
0M
1F
0W
0V
0U
1T
0R
0P
0N
1X
1W
1V
0X
#490000
0!
0?
0@
1.
#495000
1!
1?
1@
0.
1_!
1M
0F
1N
#500000
0!
0?
0@
1.
#505000
1!
1?
1@
0.
1^!
0_!
0O
0N
0M
1F
1P
1O
1N
0P
#510000
0!
0?
0@
1.
#515000
1!
1?
1@
0.
1_!
1M
0F
0O
0N
1P
#520000
0!
0?
0@
1.
#525000
1!
1?
1@
0.
1]!
0^!
0_!
1Q
0P
1O
1N
0M
1F
1R
0Q
1P
0N
0R
#530000
0!
0?
0@
1.
#535000
1!
1?
1@
0.
1_!
1M
0F
1N
#540000
0!
0?
0@
1.
#545000
1!
1?
1@
0.
1^!
0_!
0O
0N
0M
1F
1Q
0P
1O
1N
1R
0Q
1P
0R
#550000
0!
0?
0@
1.
#555000
1!
1?
1@
0.
1_!
1M
0F
0O
0N
1Q
0P
1R
#560000
0!
0?
0@
1.
#565000
1!
1?
1@
0.
1\!
0]!
0^!
0_!
0S
0R
0Q
1P
1O
1N
0M
1F
1U
0T
1S
1R
0P
0N
0W
0V
0U
1T
1X
1W
1V
0X
#570000
0!
0?
0@
1.
#575000
1!
1?
1@
0.
1_!
1M
0F
1N
#580000
0!
0?
0@
1.
#585000
1!
1?
1@
0.
1^!
0_!
0O
0N
0M
1F
1P
1O
1N
0P
#590000
0!
0?
0@
1.
#595000
1!
1?
1@
0.
1_!
1M
0F
0O
0N
1P
#600000
0!
0?
0@
1.
#605000
1!
1?
1@
0.
1]!
0^!
0_!
1Q
0P
1O
1N
0M
1F
0S
0R
0Q
1P
0N
1U
0T
1S
1R
0W
0V
0U
1T
1X
1W
1V
0X
#610000
0!
0?
0@
1.
#615000
1!
1?
1@
0.
1_!
1M
0F
1N
#620000
0!
0?
0@
1.
#625000
1!
1?
1@
0.
1^!
0_!
0O
0N
0M
1F
1Q
0P
1O
1N
0S
0R
0Q
1P
1U
0T
1S
1R
0W
0V
0U
1T
1X
1W
1V
0X
#630000
0!
0?
0@
1.
#635000
1!
1?
1@
0.
1_!
1I
1M
0F
0O
0N
1Q
0P
0S
0R
1U
0T
0W
0V
1X
#640000
0!
0?
0@
1.
#645000
1!
1?
1@
0.
1Y!
0Z!
0[!
0\!
0]!
0^!
0_!
1Y
0X
1W
1V
1G
0U
1T
1S
1R
0I
0Q
1P
1O
1N
0M
1F
1Z
0Y
1X
0V
0T
0R
0P
0N
0Z
#650000
0!
0?
0@
1.
#655000
1!
1?
1@
0.
1_!
1M
0F
1N
#660000
0!
0?
0@
1.
#665000
1!
1?
1@
0.
1^!
0_!
0O
0N
0M
1F
1P
1O
1N
0P
#670000
0!
0?
0@
1.
#675000
1!
1?
1@
0.
1_!
1M
0F
0O
0N
1P
#680000
0!
0?
0@
1.
#685000
1!
1?
1@
0.
1]!
0^!
0_!
1Q
0P
1O
1N
0M
1F
1R
0Q
1P
0N
0R
#690000
0!
0?
0@
1.
#695000
1!
1?
1@
0.
1_!
1M
0F
1N
#700000
0!
0?
0@
1.
#705000
1!
1?
1@
0.
1^!
0_!
0O
0N
0M
1F
1Q
0P
1O
1N
1R
0Q
1P
0R
#710000
0!
0?
0@
1.
#715000
1!
1?
1@
0.
1_!
1M
0F
0O
0N
1Q
0P
1R
#720000
0!
0?
0@
1.
#725000
1!
1?
1@
0.
1\!
0]!
0^!
0_!
0S
0R
0Q
1P
1O
1N
0M
1F
1T
1S
1R
0P
0N
0T
#730000
0!
0?
0@
1.
#735000
1!
1?
1@
0.
1_!
1M
0F
1N
#740000
0!
0?
0@
1.
#745000
1!
1?
1@
0.
1^!
0_!
0O
0N
0M
1F
1P
1O
1N
0P
#750000
0!
0?
0@
1.
#755000
1!
1?
1@
0.
1_!
1M
0F
0O
0N
1P
#760000
0!
0?
0@
1.
#765000
1!
1?
1@
0.
1]!
0^!
0_!
1Q
0P
1O
1N
0M
1F
0S
0R
0Q
1P
0N
1T
1S
1R
0T
#770000
0!
0?
0@
1.
#775000
1!
1?
1@
0.
1_!
1M
0F
1N
#780000
0!
0?
0@
1.
#785000
1!
1?
1@
0.
1^!
0_!
0O
0N
0M
1F
1Q
0P
1O
1N
0S
0R
0Q
1P
1T
1S
1R
0T
#790000
0!
0?
0@
1.
#795000
1!
1?
1@
0.
1_!
1I
1M
0F
0O
0N
1Q
0P
0S
0R
1T
#800000
0!
0?
0@
1.
#805000
1!
1?
1@
0.
1[!
0\!
0]!
0^!
0_!
1U
0T
0G
1S
1R
0I
0Q
1P
1O
1N
0M
1F
1V
0U
1T
0R
0P
0N
0V
#810000
0!
0?
0@
1.
#815000
1!
1?
1@
0.
1_!
1M
0F
1N
#820000
0!
0?
0@
1.
#825000
1!
1?
1@
0.
1^!
0_!
0O
0N
0M
1F
1P
1O
1N
0P
#830000
0!
0?
0@
1.
#835000
1!
1?
1@
0.
1_!
1M
0F
0O
0N
1P
#840000
0!
0?
0@
1.
#845000
1!
1?
1@
0.
1]!
0^!
0_!
1Q
0P
1O
1N
0M
1F
1R
0Q
1P
0N
0R
#850000
0!
0?
0@
1.
#855000
1!
1?
1@
0.
1_!
1M
0F
1N
#860000
0!
0?
0@
1.
#865000
1!
1?
1@
0.
1^!
0_!
0O
0N
0M
1F
1Q
0P
1O
1N
1R
0Q
1P
0R
#870000
0!
0?
0@
1.
#875000
1!
1?
1@
0.
1_!
1M
0F
0O
0N
1Q
0P
1R
#880000
0!
0?
0@
1.
#885000
1!
1?
1@
0.
1\!
0]!
0^!
0_!
0S
0R
0Q
1P
1O
1N
0M
1F
1U
0T
1S
1R
0P
0N
1V
0U
1T
0V
#890000
0!
0?
0@
1.
#895000
1!
1?
1@
0.
1_!
1M
0F
1N
#900000
0!
0?
0@
1.
#905000
1!
1?
1@
0.
1^!
0_!
0O
0N
0M
1F
1P
1O
1N
0P
#910000
0!
0?
0@
1.
#915000
1!
1?
1@
0.
1_!
1M
0F
0O
0N
1P
#920000
0!
0?
0@
1.
#925000
1!
1?
1@
0.
1]!
0^!
0_!
1Q
0P
1O
1N
0M
1F
0S
0R
0Q
1P
0N
1U
0T
1S
1R
1V
0U
1T
0V
#930000
0!
0?
0@
1.
#935000
1!
1?
1@
0.
1_!
1M
0F
1N
#940000
0!
0?
0@
1.
#945000
1!
1?
1@
0.
1^!
0_!
0O
0N
0M
1F
1Q
0P
1O
1N
0S
0R
0Q
1P
1U
0T
1S
1R
1V
0U
1T
0V
#950000
0!
0?
0@
1.
#955000
1!
1?
1@
0.
1_!
1I
1M
0F
0O
0N
1Q
0P
0S
0R
1U
0T
1V
#960000
0!
0?
0@
1.
#965000
1!
1?
1@
0.
1Z!
0[!
0\!
0]!
0^!
0_!
0W
0V
0U
1T
1S
1R
0I
0Q
1P
1O
1N
0M
1F
1Y
0X
1W
1V
0T
0R
0P
0N
1Z
0Y
1X
0Z
#970000
0!
0?
0@
1.
#975000
1!
1?
1@
0.
1_!
1M
0F
1N
#980000
0!
0?
0@
1.
#985000
1!
1?
1@
0.
1^!
0_!
0O
0N
0M
1F
1P
1O
1N
0P
#990000
0!
0?
0@
1.
#995000
1!
1?
1@
0.
1_!
1M
0F
0O
0N
1P
#1000000
0!
0?
0@
1.
#1005000
1!
1?
1@
0.
1]!
0^!
0_!
1Q
0P
1O
1N
0M
1F
1R
0Q
1P
0N
0R
#1010000
0!
0?
0@
1.
#1015000
1!
1?
1@
0.
1_!
1M
0F
1N
#1020000
0!
0?
0@
1.
#1025000
1!
1?
1@
0.
1^!
0_!
0O
0N
0M
1F
1Q
0P
1O
1N
1R
0Q
1P
0R
#1030000
0!
0?
0@
1.
#1035000
1!
1?
1@
0.
1_!
1M
0F
0O
0N
1Q
0P
1R
#1040000
0!
0?
0@
1.
#1045000
1!
1?
1@
0.
1\!
0]!
0^!
0_!
0S
0R
0Q
1P
1O
1N
0M
1F
1T
1S
1R
0P
0N
0T
#1050000
0!
0?
0@
1.
#1055000
1!
1?
1@
0.
1_!
1M
0F
1N
#1060000
0!
0?
0@
1.
#1065000
1!
1?
1@
0.
1^!
0_!
0O
0N
0M
1F
1P
1O
1N
0P
#1070000
0!
0?
0@
1.
#1075000
1!
1?
1@
0.
1_!
1M
0F
0O
0N
1P
#1080000
0!
0?
0@
1.
#1085000
1!
1?
1@
0.
1]!
0^!
0_!
1Q
0P
1O
1N
0M
1F
0S
0R
0Q
1P
0N
1T
1S
1R
0T
#1090000
0!
0?
0@
1.
#1095000
1!
1?
1@
0.
1_!
1M
0F
1N
#1100000
0!
0?
0@
1.
#1105000
1!
1?
1@
0.
1^!
0_!
0O
0N
0M
1F
1Q
0P
1O
1N
0S
0R
0Q
1P
1T
1S
1R
0T
#1110000
0!
0?
0@
1.
#1115000
1!
1?
1@
0.
1_!
1I
1M
0F
0O
0N
1Q
0P
0S
0R
1T
#1120000
0!
0?
0@
1.
#1125000
1!
1?
1@
0.
1[!
0\!
0]!
0^!
0_!
1U
0T
1S
1R
0I
0Q
1P
1O
1N
0M
1F
0W
0V
0U
1T
0R
0P
0N
1Y
0X
1W
1V
1Z
0Y
1X
0Z
#1130000
0!
0?
0@
1.
#1135000
1!
1?
1@
0.
1_!
1M
0F
1N
#1140000
0!
0?
0@
1.
#1145000
1!
1?
1@
0.
1^!
0_!
0O
0N
0M
1F
1P
1O
1N
0P
#1150000
0!
0?
0@
1.
#1155000
1!
1?
1@
0.
1_!
1M
0F
0O
0N
1P
#1160000
0!
0?
0@
1.
#1165000
1!
1?
1@
0.
1]!
0^!
0_!
1Q
0P
1O
1N
0M
1F
1R
0Q
1P
0N
0R
#1170000
0!
0?
0@
1.
#1175000
1!
1?
1@
0.
1_!
1M
0F
1N
#1180000
0!
0?
0@
1.
#1185000
1!
1?
1@
0.
1^!
0_!
0O
0N
0M
1F
1Q
0P
1O
1N
1R
0Q
1P
0R
#1190000
0!
0?
0@
1.
#1195000
1!
1?
1@
0.
1_!
1M
0F
0O
0N
1Q
0P
1R
#1200000
0!
0?
0@
1.
#1205000
1!
1?
1@
0.
1\!
0]!
0^!
0_!
0S
0R
0Q
1P
1O
1N
0M
1F
1U
0T
1S
1R
0P
0N
0W
0V
0U
1T
1Y
0X
1W
1V
1Z
0Y
1X
0Z
#1210000
0!
0?
0@
1.
#1215000
1!
1?
1@
0.
1_!
1M
0F
1N
#1220000
0!
0?
0@
1.
#1225000
1!
1?
1@
0.
1^!
0_!
0O
0N
0M
1F
1P
1O
1N
0P
#1230000
0!
0?
0@
1.
#1235000
1!
1?
1@
0.
1_!
1M
0F
0O
0N
1P
#1240000
0!
0?
0@
1.
#1245000
1!
1?
1@
0.
1]!
0^!
0_!
1Q
0P
1O
1N
0M
1F
0S
0R
0Q
1P
0N
1U
0T
1S
1R
0W
0V
0U
1T
1Y
0X
1W
1V
1Z
0Y
1X
0Z
#1250000
0!
0?
0@
1.
#1255000
1!
1?
1@
0.
1_!
1M
0F
1N
#1260000
0!
0?
0@
1.
#1265000
1!
1?
1@
0.
1^!
0_!
0O
0N
0M
1F
1Q
0P
1O
1N
0S
0R
0Q
1P
1U
0T
1S
1R
0W
0V
0U
1T
1Y
0X
1W
1V
1Z
0Y
1X
0Z
#1270000
0!
0?
0@
1.
#1275000
1!
1?
1@
0.
1_!
1I
1M
0F
0O
0N
1Q
0P
0S
0R
1U
0T
0W
0V
1Y
0X
1Z
#1280000
0!
0?
0@
1.
#1285000
1!
1?
1@
0.
1X!
0Y!
0Z!
0[!
0\!
0]!
0^!
0_!
0[
0Z
0Y
1X
1W
1V
1G
0U
1T
1S
1R
0I
0Q
1P
1O
1N
0M
1F
1\
1[
1Z
0X
0V
0T
0R
0P
0N
0\
#1290000
0!
0?
0@
1.
#1295000
1!
1?
1@
0.
1_!
1M
0F
1N
#1300000
0!
0?
0@
1.
#1305000
1!
1?
1@
0.
1^!
0_!
0O
0N
0M
1F
1P
1O
1N
0P
#1310000
0!
0?
0@
1.
#1315000
1!
1?
1@
0.
1_!
1M
0F
0O
0N
1P
#1320000
0!
0?
0@
1.
#1325000
1!
1?
1@
0.
1]!
0^!
0_!
1Q
0P
1O
1N
0M
1F
1R
0Q
1P
0N
0R
#1330000
0!
0?
0@
1.
#1335000
1!
1?
1@
0.
1_!
1M
0F
1N
#1340000
0!
0?
0@
1.
#1345000
1!
1?
1@
0.
1^!
0_!
0O
0N
0M
1F
1Q
0P
1O
1N
1R
0Q
1P
0R
#1350000
0!
0?
0@
1.
#1355000
1!
1?
1@
0.
1_!
1M
0F
0O
0N
1Q
0P
1R
#1360000
0!
0?
0@
1.
#1365000
1!
1?
1@
0.
1\!
0]!
0^!
0_!
0S
0R
0Q
1P
1O
1N
0M
1F
1T
1S
1R
0P
0N
0T
#1370000
0!
0?
0@
1.
#1375000
1!
1?
1@
0.
1_!
1M
0F
1N
#1380000
0!
0?
0@
1.
#1385000
1!
1?
1@
0.
1^!
0_!
0O
0N
0M
1F
1P
1O
1N
0P
#1390000
0!
0?
0@
1.
#1395000
1!
1?
1@
0.
1_!
1M
0F
0O
0N
1P
#1400000
0!
0?
0@
1.
#1405000
1!
1?
1@
0.
1]!
0^!
0_!
1Q
0P
1O
1N
0M
1F
0S
0R
0Q
1P
0N
1T
1S
1R
0T
#1410000
0!
0?
0@
1.
#1415000
1!
1?
1@
0.
1_!
1M
0F
1N
#1420000
0!
0?
0@
1.
#1425000
1!
1?
1@
0.
1^!
0_!
0O
0N
0M
1F
1Q
0P
1O
1N
0S
0R
0Q
1P
1T
1S
1R
0T
#1430000
0!
0?
0@
1.
#1435000
1!
1?
1@
0.
1_!
1I
1M
0F
0O
0N
1Q
0P
0S
0R
1T
#1440000
0!
0?
0@
1.
#1445000
1!
1?
1@
0.
1[!
0\!
0]!
0^!
0_!
1U
0T
0G
1S
1R
0I
0Q
1P
1O
1N
0M
1F
1V
0U
1T
0R
0P
0N
0V
#1450000
0!
0?
0@
1.
#1455000
1!
1?
1@
0.
1_!
1M
0F
1N
#1460000
0!
0?
0@
1.
#1465000
1!
1?
1@
0.
1^!
0_!
0O
0N
0M
1F
1P
1O
1N
0P
#1470000
0!
0?
0@
1.
#1475000
1!
1?
1@
0.
1_!
1M
0F
0O
0N
1P
#1480000
0!
0?
0@
1.
#1485000
1!
1?
1@
0.
1]!
0^!
0_!
1Q
0P
1O
1N
0M
1F
1R
0Q
1P
0N
0R
#1490000
0!
0?
0@
1.
#1495000
1!
1?
1@
0.
1_!
1M
0F
1N
#1500000
0!
0?
0@
1.
#1505000
1!
1?
1@
0.
1^!
0_!
0O
0N
0M
1F
1Q
0P
1O
1N
1R
0Q
1P
0R
#1510000
0!
0?
0@
1.
#1515000
1!
1?
1@
0.
1_!
1M
0F
0O
0N
1Q
0P
1R
#1520000
0!
0?
0@
1.
#1525000
1!
1?
1@
0.
1\!
0]!
0^!
0_!
0S
0R
0Q
1P
1O
1N
0M
1F
1U
0T
1S
1R
0P
0N
1V
0U
1T
0V
#1530000
0!
0?
0@
1.
#1535000
1!
1?
1@
0.
1_!
1M
0F
1N
#1540000
0!
0?
0@
1.
#1545000
1!
1?
1@
0.
1^!
0_!
0O
0N
0M
1F
1P
1O
1N
0P
#1550000
0!
0?
0@
1.
#1555000
1!
1?
1@
0.
1_!
1M
0F
0O
0N
1P
#1560000
0!
0?
0@
1.
#1565000
1!
1?
1@
0.
1]!
0^!
0_!
1Q
0P
1O
1N
0M
1F
0S
0R
0Q
1P
0N
1U
0T
1S
1R
1V
0U
1T
0V
#1570000
0!
0?
0@
1.
#1575000
1!
1?
1@
0.
1_!
1M
0F
1N
#1580000
0!
0?
0@
1.
#1585000
1!
1?
1@
0.
1^!
0_!
0O
0N
0M
1F
1Q
0P
1O
1N
0S
0R
0Q
1P
1U
0T
1S
1R
1V
0U
1T
0V
#1590000
0!
0?
0@
1.
