wave_gen/simulation/qsim/wave_gen.msim.vcd
$comment
	File created using the following command:
		vcd file wave_gen.msim.vcd -direction
$end
$date
	Sat Jun 21 16:44:30 2025
$end
$version
	ModelSim Version 10.1d
$end
$timescale
	1ps
$end
$scope module wave_gen_vlg_vec_tst $end
$var reg 1 ! clk_1mhz $end
$var reg 11 " div_max [10:0] $end
$var reg 1 # rst_n $end
$var wire 1 $ been $end
$var wire 1 % sampler $end
$scope module i1 $end
$var wire 1 & gnd $end
$var wire 1 ' vcc $end
$var wire 1 ( unknown $end
$var tri1 1 ) devclrn $end
$var tri1 1 * devpor $end
$var tri1 1 + devoe $end
$var wire 1 , been~output_o $end
$var wire 1 - clk_1mhz~input_o $end
$var wire 1 . clk_1mhz~inputclkctrl_outclk $end
$var wire 1 / div_max[2]~input_o $end
$var wire 1 0 div_max[1]~input_o $end
$var wire 1 1 div_max[0]~input_o $end
$var wire 1 2 div_max[3]~input_o $end
$var wire 1 3 Equal0~0_combout $end
$var wire 1 4 div_max[10]~input_o $end
$var wire 1 5 div_max[8]~input_o $end
$var wire 1 6 div_max[9]~input_o $end
$var wire 1 7 div_max[5]~input_o $end
$var wire 1 8 div_max[6]~input_o $end
$var wire 1 9 div_max[4]~input_o $end
$var wire 1 : div_max[7]~input_o $end
$var wire 1 ; Equal0~1_combout $end
$var wire 1 < Equal0~2_combout $end
$var wire 1 = div_cnt[0]~11_combout $end
$var wire 1 > rst_n~input_o $end
$var wire 1 ? rst_n~inputclkctrl_outclk $end
$var wire 1 @ div_cnt[0]~12 $end
$var wire 1 A div_cnt[1]~13_combout $end
$var wire 1 B div_cnt[1]~14 $end
$var wire 1 C div_cnt[2]~15_combout $end
$var wire 1 D div_cnt[2]~16 $end
$var wire 1 E div_cnt[3]~17_combout $end
$var wire 1 F div_cnt[3]~18 $end
$var wire 1 G div_cnt[4]~19_combout $end
$var wire 1 H div_cnt[4]~20 $end
$var wire 1 I div_cnt[5]~21_combout $end
$var wire 1 J div_cnt[5]~22 $end
$var wire 1 K div_cnt[6]~23_combout $end
$var wire 1 L div_cnt[6]~24 $end
$var wire 1 M div_cnt[7]~25_combout $end
$var wire 1 N div_cnt[7]~26 $end
$var wire 1 O div_cnt[8]~27_combout $end
$var wire 1 P div_cnt[8]~28 $end
$var wire 1 Q div_cnt[9]~29_combout $end
$var wire 1 R div_cnt[9]~30 $end
$var wire 1 S div_cnt[10]~31_combout $end
$var wire 1 T Equal1~5_combout $end
$var wire 1 U Equal1~1_combout $end
$var wire 1 V Equal1~0_combout $end
$var wire 1 W Equal1~3_combout $end
$var wire 1 X Equal1~2_combout $end
$var wire 1 Y Equal1~4_combout $end
$var wire 1 Z Equal1~6_combout $end
$var wire 1 [ been~0_combout $end
$var wire 1 \ been~reg0_q $end
$var wire 1 ] div_cnt [10] $end
$var wire 1 ^ div_cnt [9] $end
$var wire 1 _ div_cnt [8] $end
$var wire 1 ` div_cnt [7] $end
$var wire 1 a div_cnt [6] $end
$var wire 1 b div_cnt [5] $end
$var wire 1 c div_cnt [4] $end
$var wire 1 d div_cnt [3] $end
$var wire 1 e div_cnt [2] $end
$var wire 1 f div_cnt [1] $end
$var wire 1 g div_cnt [0] $end
$upscope $end
$upscope $end
$enddefinitions $end
#0
$dumpvars
0!
b0 "
0#
0$
x%
0&
1'
x(
1)
1*
1+
0,
0-
0.
0/
00
01
02
13
04
05
06
07
08
09
0:
1;
1<
1=
0>
0?
0@
0A
1B
0C
0D
0E
1F
0G
0H
0I
1J
0K
0L
0M
1N
0O
0P
0Q
1R
0S
1T
1U
1V
1W
1X
1Y
1Z
0[
0\
0g
0f
0e
0d
0c
0b
0a
0`
0_
0^
0]
$end
#5000
1!
1-
1.
0%
#10000
0!
0-
0.
1%
#15000
1!
1-
1.
0%
#20000
0!
0-
0.
1%
#25000
1!
1-
1.
0%
#30000
0!
0-
0.
1%
#35000
1!
1-
1.
0%
#40000
0!
0-
0.
1%
#45000
1!
1-
1.
0%
#50000
0!
0-
0.
1%
#55000
1!
1-
1.
0%
#60000
0!
0-
0.
1%
#65000
1!
1-
1.
0%
#70000
0!
0-
0.
1%
#75000
1!
1-
1.
0%
#80000
0!
0-
0.
1%
#85000
1!
1-
1.
0%
#90000
0!
0-
0.
1%
#95000
1!
1-
1.
0%
#100000
b1 "
1#
0!
11
1>
0-
1?
0.
1%
0V
03
0Y
1[
0Z
0[
#105000
1!
1-
1.
0%
1g
1V
1@
0=
1Y
1A
1Z
1[
#110000
0!
0-
0.
1%
#115000
1!
1-
1.
0%
0g
1\
0V
0@
1=
0[
1,
1$
0Y
0A
0Z
1[
#120000
0!
0-
0.
1%
#125000
1!
1-
1.
0%
1g
1V
1@
0=
1Y
1A
1Z
0[
#130000
0!
0-
0.
1%
#135000
1!
1-
1.
0%
0g
0\
0V
0@
1=
1[
0,
0$
0Y
0A
0Z
0[
#140000
0!
0-
0.
1%
#145000
1!
1-
1.
0%
1g
1V
1@
0=
1Y
1A
1Z
1[
#150000
0!
0-
0.
1%
#155000
1!
1-
1.
0%
0g
1\
0V
0@
1=
0[
1,
1$
0Y
0A
0Z
1[
#160000
0!
0-
0.
1%
#165000
1!
1-
1.
0%
1g
1V
1@
0=
1Y
1A
1Z
0[
#170000
0!
0-
0.
1%
#175000
1!
1-
1.
0%
0g
0\
0V
0@
1=
1[
0,
0$
0Y
0A
0Z
0[
#180000
0!
0-
0.
1%
#185000
1!
1-
1.
0%
1g
1V
1@
0=
1Y
1A
1Z
1[
#190000
0!
0-
0.
1%
#195000
1!
1-
1.
0%
0g
1\
0V
0@
1=
0[
1,
1$
0Y
0A
0Z
1[
#200000
b11 "
b10 "
0#
0!
01
10
0>
0-
0?
0.
1%
0\
0[
0,
0$
#205000
1!
1-
1.
0%
#210000
0!
0-
0.
1%
#215000
1!
1-
1.
0%
#220000
0!
0-
0.
1%
#225000
1!
1-
1.
0%
#230000
0!
0-
0.
1%
#235000
1!
1-
1.
0%
#240000
0!
0-
0.
1%
#245000
1!
1-
1.
0%
#250000
0!
0-
0.
1%
#255000
1!
1-
1.
0%
#260000
0!
0-
0.
1%
#265000
1!
1-
1.
0%
#270000
0!
0-
0.
1%
#275000
1!
1-
1.
0%
#280000
0!
0-
0.
1%
#285000
1!
1-
1.
0%
#290000
0!
0-
0.
1%
#295000
1!
1-
1.
0%
#300000
b11 "
1#
0!
11
1>
0-
1?
0.
1%
#305000
1!
1-
1.
0%
1g
1@
0=
1A
#310000
0!
0-
0.
1%
#315000
1!
1-
1.
0%
1f
0g
0B
0A
0@
1=
1C
1B
1A
0C
#320000
0!
0-
0.
1%
#325000
1!
1-
1.
0%
1g
1V
1@
0=
1Y
0B
0A
1Z
1C
1[
#330000
0!
0-
0.
1%
#335000
1!
1-
1.
0%
0f
0g
1\
0V
1B
1A
0@
1=
0[
1,
1$
0Y
0C
0A
0Z
1[
#340000
0!
0-
0.
1%
#345000
1!
1-
1.
0%
1g
1@
0=
1A
#350000
0!
0-
0.
1%
#355000
1!
1-
1.
0%
1f
0g
0B
0A
0@
1=
1C
1B
1A
0C
#360000
0!
0-
0.
1%
#365000
1!
1-
1.
0%
1g
1V
1@
0=
1Y
0B
0A
1Z
1C
0[
#370000
0!
0-
0.
1%
#375000
1!
1-
1.
0%
0f
0g
0\
0V
1B
1A
0@
1=
1[
0,
0$
0Y
0C
0A
0Z
0[
#380000
0!
0-
0.
1%
#385000
1!
1-
1.
0%
1g
1@
0=
1A
#390000
0!
0-
0.
1%
#395000
1!
1-
1.
0%
1f
0g
0B
0A
0@
1=
1C
1B
1A
0C
#400000
b111 "
b101 "
b100 "
0#
0!
01
00
1/
0>
0-
0?
0.
1%
0U
0f
1V
0A
#405000
1!
1-
1.
0%
#410000
0!
0-
0.
1%
#415000
1!
1-
1.
0%
#420000
0!
0-
0.
1%
#425000
1!
1-
1.
0%
#430000
0!
0-
0.
1%
#435000
1!
1-
1.
0%
#440000
0!
0-
0.
1%
#445000
1!
1-
1.
0%
#450000
0!
0-
0.
1%
#455000
1!
1-
1.
0%
#460000
0!
0-
0.
1%
#465000
1!
1-
1.
0%
#470000
0!
0-
0.
1%
#475000
1!
1-
1.
0%
#480000
0!
0-
0.
1%
#485000
1!
1-
1.
0%
#490000
0!
0-
0.
1%
#495000
1!
1-
1.
0%
#500000
b101 "
1#
0!
11
1>
0-
1?
0.
1%
0V
#505000
1!
1-
1.
0%
1g
1V
1@
0=
1A
#510000
0!
0-
0.
1%
#515000
1!
1-
1.
0%
1f
0g
0V
0B
0A
0@
1=
1C
1B
1A
0C
#520000
0!
0-
0.
1%
#525000
1!
1-
1.
0%
1g
1@
0=
0B
0A
1C
#530000
0!
0-
0.
1%
#535000
1!
1-
1.
0%
1e
0f
0g
1U
1D
0C
1B
1A
0@
1=
1E
0D
1C
0A
0E
#540000
0!
0-
0.
1%
#545000
1!
1-
1.
0%
1g
1V
1@
0=
1Y
1A
1Z
1[
#550000
0!
0-
0.
1%
#555000
1!
1-
1.
0%
0e
0g
1\
0U
0C
0V
0@
1=
0[
1,
1$
0Y
0A
0Z
1[
#560000
0!
0-
0.
1%
#565000
1!
1-
1.
0%
1g
1V
1@
0=
1A
#570000
0!
0-
0.
1%
#575000
1!
1-
1.
0%
1f
0g
0V
0B
0A
0@
1=
1C
1B
1A
0C
#580000
0!
0-
0.
1%
#585000
1!
1-
1.
0%
1g
1@
0=
0B
0A
1C
#590000
0!
0-
0.
1%
#595000
1!
1-
1.
0%
1e
0f
0g
1U
1D
0C
1B
1A
0@
1=
1E
0D
1C
0A
0E
#600000
b111 "
b110 "
0#
0!
01
10
0>
0-
0?
0.
1%
0e
0\
0U
0C
0[
0,
0$
#605000
1!
1-
1.
0%
#610000
0!
0-
0.
1%
#615000
1!
1-
1.
0%
#620000
0!
0-
0.
1%
#625000
1!
1-
1.
0%
#630000
0!
0-
0.
1%
#635000
1!
1-
1.
0%
#640000
0!
0-
0.
1%
#645000
1!
1-
1.
0%
#650000
0!
0-
0.
1%
#655000
1!
1-
1.
0%
#660000
0!
0-
0.
1%
#665000
1!
1-
1.
0%
#670000
0!
0-
0.
1%
#675000
1!
1-
1.
0%
#680000
0!
0-
0.
1%
#685000
1!
1-
1.
0%
#690000
0!
0-
0.
1%
#695000
1!
1-
1.
0%
#700000
b111 "
1#
0!
11
1>
0-
1?
0.
1%
#705000
1!
1-
1.
0%
1g
1@
0=
1A
#710000
0!
0-
0.
1%
#715000
1!
1-
1.
0%
1f
0g
0B
0A
0@
1=
1C
1B
1A
0C
#720000
0!
0-
0.
1%
#725000
1!
1-
1.
0%
1g
1V
1@
0=
0B
0A
1C
#730000
0!
0-
0.
1%
#735000
1!
1-
1.
0%
1e
0f
0g
1U
1D
0C
0V
1B
1A
0@
1=
1E
0D
1C
0A
0E
#740000
0!
0-
0.
1%
#745000
1!
1-
1.
0%
1g
1@
0=
1A
#750000
0!
0-
0.
1%
#755000
1!
1-
1.
0%
1f
0g
0B
0A
0@
1=
1D
0C
1B
1A
1E
0D
1C
0E
#760000
0!
0-
0.
1%
#765000
1!
1-
1.
0%
1g
1V
1@
0=
1Y
0B
0A
1Z
1D
0C
1[
1E
#770000
0!
0-
0.
1%
#775000
1!
1-
1.
0%
0e
0f
0g
1\
0U
0D
1C
0V
1B
1A
0@
1=
0[
1,
1$
0Y
0E
0C
0A
0Z
1[
#780000
0!
0-
0.
1%
#785000
1!
1-
1.
0%
1g
1@
0=
1A
#790000
0!
0-
0.
1%
#795000
1!
1-
1.
0%
1f
0g
0B
0A
0@
1=
1C
1B
1A
0C
#800000
b1111 "
b1011 "
b1001 "
b1000 "
0#
0!
01
00
0/
12
0>
0-
0?
0.
1%
0f
0\
1V
0A
0[
0,
0$
#805000
1!
1-
1.
0%
#810000
0!
0-
0.
1%
#815000
1!
1-
1.
0%
#820000
0!
0-
0.
1%
#825000
1!
1-
1.
0%
#830000
0!
0-
0.
1%
#835000
1!
1-
1.
0%
#840000
0!
0-
0.
1%
#845000
1!
1-
1.
0%
#850000
0!
0-
0.
1%
#855000
1!
1-
1.
0%
#860000
0!
0-
0.
1%
#865000
1!
1-
1.
0%
#870000
0!
0-
0.
1%
#875000
1!
1-
1.
0%
#880000
0!
0-
0.
1%
#885000
1!
1-
1.
0%
#890000
0!
0-
0.
1%
#895000
1!
1-
1.
0%
#900000
b1001 "
1#
0!
11
1>
0-
1?
0.
1%
0V
#905000
1!
1-
1.
0%
1g
1V
1@
0=
1A
#910000
0!
0-
0.
1%
#915000
1!
1-
1.
0%
1f
0g
0V
0B
0A
0@
1=
1C
1B
1A
0C
#920000
0!
0-
0.
1%
#925000
1!
1-
1.
0%
1g
1@
0=
0B
0A
1C
#930000
0!
0-
0.
1%
#935000
1!
1-
1.
0%
1e
0f
0g
1D
0C
1B
1A
0@
1=
1E
0D
1C
0A
0E
#940000
0!
0-
0.
1%
#945000
1!
1-
1.
0%
1g
1V
1@
0=
1A
#950000
0!
0-
0.
1%
#955000
1!
1-
1.
0%
1f
0g
0V
0B
0A
0@
1=
1D
0C
1B
1A
1E
0D
1C
0E
#960000
0!
0-
0.
1%
#965000
1!
1-
1.
0%
1g
1@
0=
0B
0A
1D
0C
1E
#970000
0!
0-
0.
1%
#975000
1!
1-
1.
0%
1d
0e
0f
0g
1U
0F
0E
0D
1C
1B
1A
0@
1=
1G
1F
1E
0C
0A
0G
#980000
0!
0-
0.
1%
#985000
1!
1-
1.
0%
1g
1V
1@
0=
1Y
1A
1Z
1[
#990000
0!
0-
0.
1%
#995000
1!
1-
1.
0%
0d
0g
1\
0U
0E
0V
0@
1=
0[
1,
1$
0Y
0A
0Z
1[
