debounce/simulation/qsim/debounce.msim.vcd
$comment
	File created using the following command:
		vcd file debounce.msim.vcd -direction
$end
$date
	Sat Jun 21 17:30:55 2025
$end
$version
	ModelSim Version 10.1d
$end
$timescale
	1ps
$end
$scope module debounce_vlg_vec_tst $end
$var reg 1 ! btn_in $end
$var reg 1 " clk $end
$var reg 1 # rst_n $end
$var wire 1 $ btn_pressed $end
$var wire 1 % sampler $end
$scope module i1 $end
$var wire 1 & gnd $end
$var wire 1 ' vcc $end
$var wire 1 ( unknown $end
$var tri1 1 ) devclrn $end
$var tri1 1 * devpor $end
$var tri1 1 + devoe $end
$var wire 1 , btn_pressed~output_o $end
$var wire 1 - clk~input_o $end
$var wire 1 . clk~inputclkctrl_outclk $end
$var wire 1 / debounce_cnt[0]~20_combout $end
$var wire 1 0 ~GND~combout $end
$var wire 1 1 rst_n~input_o $end
$var wire 1 2 rst_n~inputclkctrl_outclk $end
$var wire 1 3 btn_in~input_o $end
$var wire 1 4 btn_ff1~0_combout $end
$var wire 1 5 btn_ff1~q $end
$var wire 1 6 btn_ff2~feeder_combout $end
$var wire 1 7 btn_ff2~q $end
$var wire 1 8 always0~0_combout $end
$var wire 1 9 debounce_cnt[0]~22_combout $end
$var wire 1 : debounce_cnt[0]~21 $end
$var wire 1 ; debounce_cnt[1]~23_combout $end
$var wire 1 < debounce_cnt[1]~24 $end
$var wire 1 = debounce_cnt[2]~25_combout $end
$var wire 1 > debounce_cnt[2]~26 $end
$var wire 1 ? debounce_cnt[3]~27_combout $end
$var wire 1 @ debounce_cnt[3]~28 $end
$var wire 1 A debounce_cnt[4]~29_combout $end
$var wire 1 B debounce_cnt[4]~30 $end
$var wire 1 C debounce_cnt[5]~31_combout $end
$var wire 1 D debounce_cnt[5]~32 $end
$var wire 1 E debounce_cnt[6]~33_combout $end
$var wire 1 F debounce_cnt[6]~34 $end
$var wire 1 G debounce_cnt[7]~35_combout $end
$var wire 1 H debounce_cnt[7]~36 $end
$var wire 1 I debounce_cnt[8]~37_combout $end
$var wire 1 J debounce_cnt[8]~38 $end
$var wire 1 K debounce_cnt[9]~39_combout $end
$var wire 1 L debounce_cnt[9]~40 $end
$var wire 1 M debounce_cnt[10]~41_combout $end
$var wire 1 N debounce_cnt[10]~42 $end
$var wire 1 O debounce_cnt[11]~43_combout $end
$var wire 1 P debounce_cnt[11]~44 $end
$var wire 1 Q debounce_cnt[12]~45_combout $end
$var wire 1 R debounce_cnt[12]~46 $end
$var wire 1 S debounce_cnt[13]~47_combout $end
$var wire 1 T debounce_cnt[13]~48 $end
$var wire 1 U debounce_cnt[14]~49_combout $end
$var wire 1 V debounce_cnt[14]~50 $end
$var wire 1 W debounce_cnt[15]~51_combout $end
$var wire 1 X debounce_cnt[15]~52 $end
$var wire 1 Y debounce_cnt[16]~53_combout $end
$var wire 1 Z debounce_cnt[16]~54 $end
$var wire 1 [ debounce_cnt[17]~55_combout $end
$var wire 1 \ debounce_cnt[17]~56 $end
$var wire 1 ] debounce_cnt[18]~57_combout $end
$var wire 1 ^ debounce_cnt[18]~58 $end
$var wire 1 _ debounce_cnt[19]~59_combout $end
$var wire 1 ` Equal1~3_combout $end
$var wire 1 a Equal1~2_combout $end
$var wire 1 b Equal1~1_combout $end
$var wire 1 c Equal1~0_combout $end
$var wire 1 d Equal1~4_combout $end
$var wire 1 e Equal1~5_combout $end
$var wire 1 f Equal1~6_combout $end
$var wire 1 g debounce_cnt [19] $end
$var wire 1 h debounce_cnt [18] $end
$var wire 1 i debounce_cnt [17] $end
$var wire 1 j debounce_cnt [16] $end
$var wire 1 k debounce_cnt [15] $end
$var wire 1 l debounce_cnt [14] $end
$var wire 1 m debounce_cnt [13] $end
$var wire 1 n debounce_cnt [12] $end
$var wire 1 o debounce_cnt [11] $end
$var wire 1 p debounce_cnt [10] $end
$var wire 1 q debounce_cnt [9] $end
$var wire 1 r debounce_cnt [8] $end
$var wire 1 s debounce_cnt [7] $end
$var wire 1 t debounce_cnt [6] $end
$var wire 1 u debounce_cnt [5] $end
$var wire 1 v debounce_cnt [4] $end
$var wire 1 w debounce_cnt [3] $end
$var wire 1 x debounce_cnt [2] $end
$var wire 1 y debounce_cnt [1] $end
$var wire 1 z debounce_cnt [0] $end
$upscope $end
$upscope $end
$enddefinitions $end
#0
$dumpvars
0!
0"
0#
0$
x%
0&
1'
x(
1)
1*
1+
0,
0-
0.
1/
00
01
02
03
14
05
06
07
08
09
0:
1;
1<
1=
0>
1?
1@
1A
0B
1C
1D
1E
0F
1G
1H
1I
0J
1K
1L
1M
0N
1O
1P
1Q
0R
1S
1T
1U
0V
1W
1X
1Y
0Z
1[
1\
1]
0^
1_
1`
1a
1b
1c
1d
1e
0f
0z
0y
0x
0w
0v
0u
0t
0s
0r
0q
0p
0o
0n
0m
0l
0k
0j
0i
0h
0g
$end
#500
1"
1-
1.
0%
#1000
0"
0-
0.
1%
#1500
1"
1-
1.
0%
#2000
0"
0-
0.
1%
#2500
1"
1-
1.
0%
#3000
0"
0-
0.
1%
#3500
1"
1-
1.
0%
#4000
0"
0-
0.
1%
#4500
1"
1-
1.
0%
#5000
0"
0-
0.
1%
#5500
1"
1-
1.
0%
#6000
0"
0-
0.
1%
#6500
1"
1-
1.
0%
#7000
0"
0-
0.
1%
#7500
1"
1-
1.
0%
#8000
0"
0-
0.
1%
#8500
1"
1-
1.
0%
#9000
0"
0-
0.
1%
#9500
1"
1-
1.
0%
#10000
1#
0"
11
0-
12
0.
1%
#10500
1"
1-
1.
0%
15
19
18
16
#11000
0"
0-
0.
1%
#11500
1"
1-
1.
0%
1w
1y
17
0c
0@
0?
0<
0;
09
08
0d
1B
0A
1>
0=
0e
0D
0C
1?
19
1F
0E
0H
0G
1J
0I
0L
0K
1N
0M
0P
0O
1R
0Q
0T
0S
1V
0U
0X
0W
1Z
0Y
0\
0[
1^
0]
0_
#12000
0"
0-
0.
1%
#12500
1"
1-
1.
0%
0y
1z
1<
1;
1:
0/
0>
1=
0<
0;
0?
1>
0=
1?
#13000
0"
0-
0.
1%
#13500
1"
1-
1.
0%
0z
0:
1/
1<
1;
0>
1=
0?
#14000
0"
0-
0.
1%
#14500
1"
1-
1.
0%
0w
1x
1y
1z
1@
1?
1>
0=
0<
0;
1:
0/
0B
1A
0@
0?
1=
1;
1D
1C
1B
0A
0F
1E
0D
0C
1H
1G
1F
0E
0J
1I
0H
0G
1L
1K
1J
0I
0N
1M
0L
0K
1P
1O
1N
0M
0R
1Q
0P
0O
1T
1S
1R
0Q
0V
1U
0T
0S
1X
1W
1V
0U
0Z
1Y
0X
0W
1\
1[
1Z
0Y
0^
1]
0\
0[
1_
1^
0]
0_
#15000
0"
0-
0.
1%
#15500
1"
1-
1.
0%
0z
0:
1/
0;
#16000
0"
0-
0.
1%
#16500
1"
1-
1.
0%
0y
1z
1<
1;
1:
0/
0=
0<
0;
1=
#17000
0"
0-
0.
1%
#17500
1"
1-
1.
0%
0z
0:
1/
1<
1;
0=
#18000
0"
0-
0.
1%
#18500
1"
1-
1.
0%
0x
1y
1z
0>
1=
0<
0;
1:
0/
1@
1?
1>
0=
1;
0B
1A
0@
0?
1D
1C
1B
0A
0F
1E
0D
0C
1H
1G
1F
0E
0J
1I
0H
0G
1L
1K
1J
0I
0N
1M
0L
0K
1P
1O
1N
0M
0R
1Q
0P
0O
1T
1S
1R
0Q
0V
1U
0T
0S
1X
1W
1V
0U
0Z
1Y
0X
0W
1\
1[
1Z
0Y
0^
1]
0\
0[
1_
1^
0]
0_
#19000
0"
0-
0.
1%
#19500
1"
1-
1.
0%
0z
0:
1/
0;
#20000
0"
0-
0.
1%
#20500
1"
1-
1.
0%
0y
1z
1c
1<
1;
1:
0/
1d
0>
1=
0<
0;
1e
1@
1?
1>
0=
0B
1A
0@
0?
1f
1D
1C
1B
0A
1,
1$
0F
1E
0D
0C
1H
1G
1F
0E
0J
1I
0H
0G
1L
1K
1J
0I
0N
1M
0L
0K
1P
1O
1N
0M
0R
1Q
0P
0O
1T
1S
1R
0Q
0V
1U
0T
0S
1X
1W
1V
0U
0Z
1Y
0X
0W
1\
1[
1Z
0Y
0^
1]
0\
0[
1_
1^
0]
0_
#21000
0"
0-
0.
1%
#21500
1"
1-
1.
0%
0z
09
0:
1/
0f
1<
1;
0,
0$
0>
1=
1@
1?
0B
1A
1D
1C
0F
1E
1H
1G
0J
1I
1L
1K
0N
1M
1P
1O
0R
1Q
1T
1S
0V
1U
1X
1W
0Z
1Y
1\
1[
0^
1]
1_
#22000
0"
0-
0.
1%
#22500
1"
1-
1.
0%
#23000
0"
0-
0.
1%
#23500
1"
1-
1.
0%
#24000
0"
0-
0.
1%
#24500
1"
1-
1.
0%
#25000
0"
0-
0.
1%
#25500
1"
1-
1.
0%
#26000
0"
0-
0.
1%
#26500
1"
1-
1.
0%
#27000
0"
0-
0.
1%
#27500
1"
1-
1.
0%
#28000
0"
0-
0.
1%
#28500
1"
1-
1.
0%
#29000
0"
0-
0.
1%
#29500
1"
1-
1.
0%
#30000
0"
0-
0.
1%
#30500
1"
1-
1.
0%
#31000
0"
0-
0.
1%
#31500
1"
1-
1.
0%
#32000
0"
0-
0.
1%
#32500
1"
1-
1.
0%
#33000
0"
0-
0.
1%
#33500
1"
1-
1.
0%
#34000
0"
0-
0.
1%
#34500
1"
1-
1.
0%
#35000
0"
0-
0.
1%
#35500
1"
1-
1.
0%
#36000
0"
0-
0.
1%
#36500
1"
1-
1.
0%
#37000
0"
0-
0.
1%
#37500
1"
1-
1.
0%
#38000
0"
0-
0.
1%
#38500
1"
1-
1.
0%
#39000
0"
0-
0.
1%
#39500
1"
1-
1.
0%
#40000
0"
0-
0.
1%
#40500
1"
1-
1.
0%
#41000
0"
0-
0.
1%
#41500
1"
1-
1.
0%
#42000
0"
0-
0.
1%
#42500
1"
1-
1.
0%
#43000
0"
0-
0.
1%
#43500
1"
1-
1.
0%
#44000
0"
0-
0.
1%
#44500
1"
1-
1.
0%
#45000
0"
0-
0.
1%
#45500
1"
1-
1.
0%
#46000
0"
0-
0.
1%
#46500
1"
1-
1.
0%
#47000
0"
0-
0.
1%
#47500
1"
1-
1.
0%
#48000
0"
0-
0.
1%
#48500
1"
1-
1.
0%
#49000
0"
0-
0.
1%
#49500
1"
1-
1.
0%
#50000
0"
0-
0.
1%
#50500
1"
1-
1.
0%
#51000
0"
0-
0.
1%
#51500
1"
1-
1.
0%
#52000
0"
0-
0.
1%
#52500
1"
1-
1.
0%
#53000
0"
0-
0.
1%
#53500
1"
1-
1.
0%
#54000
0"
0-
0.
1%
#54500
1"
1-
1.
0%
#55000
0"
0-
0.
1%
#55500
1"
1-
1.
0%
#56000
0"
0-
0.
1%
#56500
1"
1-
1.
0%
#57000
0"
0-
0.
1%
#57500
1"
1-
1.
0%
#58000
0"
0-
0.
1%
#58500
1"
1-
1.
0%
#59000
0"
0-
0.
1%
#59500
1"
1-
1.
0%
#60000
0"
0-
0.
1%
#60500
1"
1-
1.
0%
#61000
0"
0-
0.
1%
#61500
1"
1-
1.
0%
#62000
0"
0-
0.
1%
#62500
1"
1-
1.
0%
#63000
0"
0-
0.
1%
#63500
1"
1-
1.
0%
#64000
0"
0-
0.
1%
#64500
1"
1-
1.
0%
#65000
0"
0-
0.
1%
#65500
1"
1-
1.
0%
#66000
0"
0-
0.
1%
#66500
1"
1-
1.
0%
#67000
0"
0-
0.
1%
#67500
1"
1-
1.
0%
#68000
0"
0-
0.
1%
#68500
1"
1-
1.
0%
#69000
0"
0-
0.
1%
#69500
1"
1-
1.
0%
#70000
0"
0-
0.
1%
#70500
1"
1-
1.
0%
#71000
0"
0-
0.
1%
#71500
1"
1-
1.
0%
#72000
0"
0-
0.
1%
#72500
1"
1-
1.
0%
#73000
0"
0-
0.
1%
#73500
1"
1-
1.
0%
#74000
0"
0-
0.
1%
#74500
1"
1-
1.
0%
#75000
0"
0-
0.
1%
#75500
1"
1-
1.
0%
#76000
0"
0-
0.
1%
#76500
1"
1-
1.
0%
#77000
0"
0-
0.
1%
#77500
1"
1-
1.
0%
#78000
0"
0-
0.
1%
#78500
1"
1-
1.
0%
#79000
0"
0-
0.
1%
#79500
1"
1-
1.
0%
#80000
0"
0-
0.
1%
#80500
1"
1-
1.
0%
#81000
0"
0-
0.
1%
#81500
1"
1-
1.
0%
#82000
0"
0-
0.
1%
#82500
1"
1-
1.
0%
#83000
0"
0-
0.
1%
#83500
1"
1-
1.
0%
#84000
0"
0-
0.
1%
#84500
1"
1-
1.
0%
#85000
0"
0-
0.
1%
#85500
1"
1-
1.
0%
#86000
0"
0-
0.
1%
#86500
1"
1-
1.
0%
#87000
0"
0-
0.
1%
#87500
1"
1-
1.
0%
#88000
0"
0-
0.
1%
#88500
1"
1-
1.
0%
#89000
0"
0-
0.
1%
#89500
1"
1-
1.
0%
#90000
0"
0-
0.
1%
#90500
1"
1-
1.
0%
#91000
0"
0-
0.
1%
#91500
1"
1-
1.
0%
#92000
0"
0-
0.
1%
#92500
1"
1-
1.
0%
#93000
0"
0-
0.
1%
#93500
1"
1-
1.
0%
#94000
0"
0-
0.
1%
#94500
1"
1-
1.
0%
#95000
0"
0-
0.
1%
#95500
1"
1-
1.
0%
#96000
0"
0-
0.
1%
#96500
1"
1-
1.
0%
#97000
0"
0-
0.
1%
#97500
1"
1-
1.
0%
#98000
0"
0-
0.
1%
#98500
1"
1-
1.
0%
#99000
0"
0-
0.
1%
#99500
1"
1-
1.
0%
#100000
0"
0-
0.
1%
#100500
1"
1-
1.
0%
#101000
0"
0-
0.
1%
#101500
1"
1-
1.
0%
#102000
0"
0-
0.
1%
#102500
1"
1-
1.
0%
#103000
0"
0-
0.
1%
#103500
1"
1-
1.
0%
#104000
0"
0-
0.
1%
#104500
1"
1-
1.
0%
#105000
0"
0-
0.
1%
#105500
1"
1-
1.
0%
#106000
0"
0-
0.
1%
#106500
1"
1-
1.
0%
#107000
0"
0-
0.
1%
#107500
1"
1-
1.
0%
#108000
0"
0-
0.
1%
#108500
1"
1-
1.
0%
#109000
0"
0-
0.
1%
#109500
1"
1-
1.
0%
#110000
0"
0-
0.
1%
#110500
1"
1-
1.
0%
#111000
0"
0-
0.
1%
#111500
1"
1-
1.
0%
#112000
0"
0-
0.
1%
#112500
1"
1-
1.
0%
#113000
0"
0-
0.
1%
#113500
1"
1-
1.
0%
#114000
0"
0-
0.
1%
#114500
1"
1-
1.
0%
#115000
0"
0-
0.
1%
#115500
1"
1-
1.
0%
#116000
0"
0-
0.
1%
#116500
1"
1-
1.
0%
#117000
0"
0-
0.
1%
#117500
1"
1-
1.
0%
#118000
0"
0-
0.
1%
#118500
1"
1-
1.
0%
#119000
0"
0-
0.
1%
#119500
1"
1-
1.
0%
#120000
0"
0-
0.
1%
#120500
1"
1-
1.
0%
#121000
0"
0-
0.
1%
#121500
1"
1-
1.
0%
#122000
0"
0-
0.
1%
#122500
1"
1-
1.
0%
#123000
0"
0-
0.
1%
#123500
1"
1-
1.
0%
#124000
0"
0-
0.
1%
#124500
1"
1-
1.
0%
#125000
0"
0-
0.
1%
#125500
1"
1-
1.
0%
#126000
0"
0-
0.
1%
#126500
1"
1-
1.
0%
#127000
0"
0-
0.
1%
#127500
1"
1-
1.
0%
#128000
0"
0-
0.
1%
#128500
1"
1-
1.
0%
#129000
0"
0-
0.
1%
#129500
1"
1-
1.
0%
#130000
0"
0-
0.
1%
#130500
1"
1-
1.
0%
#131000
0"
0-
0.
1%
#131500
1"
1-
1.
0%
#132000
0"
0-
0.
1%
#132500
1"
1-
1.
0%
#133000
0"
0-
0.
1%
#133500
1"
1-
1.
0%
#134000
0"
0-
0.
1%
#134500
1"
1-
1.
0%
#135000
0"
0-
0.
1%
#135500
1"
1-
1.
0%
#136000
0"
0-
0.
1%
#136500
1"
1-
1.
0%
#137000
0"
0-
0.
1%
#137500
1"
1-
1.
0%
#138000
0"
0-
0.
1%
#138500
1"
1-
1.
0%
#139000
0"
0-
0.
1%
#139500
1"
1-
1.
0%
#140000
0"
0-
0.
1%
#140500
1"
1-
1.
0%
#141000
0"
0-
0.
1%
#141500
1"
1-
1.
0%
#142000
0"
0-
0.
1%
#142500
1"
1-
1.
0%
#143000
0"
0-
0.
1%
#143500
1"
1-
1.
0%
#144000
0"
0-
0.
1%
#144500
1"
1-
1.
0%
#145000
0"
0-
0.
1%
#145500
1"
1-
1.
0%
#146000
0"
0-
0.
1%
#146500
1"
1-
1.
0%
#147000
0"
0-
0.
1%
#147500
1"
1-
1.
0%
#148000
0"
0-
0.
1%
#148500
1"
1-
1.
0%
#149000
0"
0-
0.
1%
#149500
1"
1-
1.
0%
#150000
0"
0-
0.
1%
#150500
1"
1-
1.
0%
#151000
0"
0-
0.
1%
#151500
1"
1-
1.
0%
#152000
0"
0-
0.
1%
#152500
1"
1-
1.
0%
#153000
0"
0-
0.
1%
#153500
1"
1-
1.
0%
#154000
0"
0-
0.
1%
#154500
1"
1-
1.
0%
#155000
0"
0-
0.
1%
#155500
1"
1-
1.
0%
#156000
0"
0-
0.
1%
#156500
1"
1-
1.
0%
#157000
0"
0-
0.
1%
#157500
1"
1-
1.
0%
#158000
0"
0-
0.
1%
#158500
1"
1-
1.
0%
#159000
0"
0-
0.
1%
#159500
1"
1-
1.
0%
#160000
1!
0"
13
0-
0.
1%
04
#160500
1"
1-
1.
0%
05
06
#161000
0"
0-
0.
1%
#161500
1"
1-
1.
0%
07
#162000
0"
0-
0.
1%
#162500
1"
1-
1.
0%
#163000
0"
0-
0.
1%
#163500
1"
1-
1.
0%
#164000
0"
0-
0.
1%
#164500
1"
1-
1.
0%
#165000
0"
0-
0.
1%
#165500
1"
1-
1.
0%
#166000
0"
0-
0.
1%
#166500
1"
1-
1.
0%
#167000
0"
0-
0.
1%
#167500
1"
1-
1.
0%
#168000
0"
0-
0.
1%
#168500
1"
1-
1.
0%
#169000
0"
0-
0.
1%
#169500
1"
1-
1.
0%
#170000
0"
0-
0.
1%
#170500
1"
1-
1.
0%
#171000
0"
0-
0.
1%
#171500
1"
1-
1.
0%
#172000
0"
0-
0.
1%
#172500
1"
1-
1.
0%
#173000
0"
0-
0.
1%
#173500
1"
1-
1.
0%
#174000
0"
0-
0.
1%
#174500
1"
1-
1.
0%
#175000
0"
0-
0.
1%
#175500
1"
1-
1.
0%
#176000
0"
0-
0.
1%
#176500
1"
1-
1.
0%
#177000
0"
0-
0.
1%
#177500
1"
1-
1.
0%
#178000
0"
0-
0.
1%
#178500
1"
1-
1.
0%
#179000
0"
0-
0.
1%
#179500
1"
1-
1.
0%
#180000
0"
0-
0.
1%
#180500
1"
1-
1.
0%
#181000
0"
0-
0.
1%
#181500
1"
1-
1.
0%
#182000
0"
0-
0.
1%
#182500
1"
1-
1.
0%
#183000
0"
0-
0.
1%
#183500
1"
1-
1.
0%
#184000
0"
0-
0.
1%
#184500
1"
1-
1.
0%
#185000
0"
0-
0.
1%
#185500
1"
1-
1.
0%
#186000
0"
0-
0.
1%
#186500
1"
1-
1.
0%
#187000
0"
0-
0.
1%
#187500
1"
1-
1.
0%
#188000
0"
0-
0.
1%
#188500
1"
1-
1.
0%
#189000
0"
0-
0.
1%
#189500
1"
1-
1.
0%
#190000
0"
0-
0.
1%
#190500
1"
1-
1.
0%
#191000
0"
0-
0.
1%
#191500
1"
1-
1.
0%
#192000
0"
0-
0.
1%
#192500
1"
1-
1.
0%
#193000
0"
0-
0.
1%
#193500
1"
1-
1.
0%
#194000
0"
0-
0.
1%
#194500
1"
1-
1.
0%
#195000
0"
0-
0.
1%
#195500
1"
1-
1.
0%
#196000
0"
0-
0.
1%
#196500
1"
1-
1.
0%
#197000
0"
0-
0.
1%
#197500
1"
1-
1.
0%
#198000
0"
0-
0.
1%
#198500
1"
1-
1.
0%
#199000
0"
0-
0.
1%
#199500
1"
1-
1.
0%
#200000
0"
0-
0.
1%
#200500
1"
1-
1.
0%
#201000
0"
0-
0.
1%
#201500
1"
1-
1.
0%
#202000
0"
0-
0.
1%
#202500
1"
1-
1.
0%
#203000
0"
0-
0.
1%
#203500
1"
1-
1.
0%
#204000
0"
0-
0.
1%
#204500
1"
1-
1.
0%
#205000
0"
0-
0.
1%
#205500
1"
1-
1.
0%
#206000
0"
0-
0.
1%
#206500
1"
1-
1.
0%
#207000
0"
0-
0.
1%
#207500
1"
1-
1.
0%
#208000
0"
0-
0.
1%
#208500
1"
1-
1.
0%
#209000
0"
0-
0.
1%
#209500
1"
1-
1.
0%
#210000
0"
0-
0.
1%
#210500
1"
1-
1.
0%
#211000
0"
0-
0.
1%
#211500
1"
1-
1.
0%
#212000
0"
0-
0.
1%
#212500
1"
1-
1.
0%
#213000
0"
0-
0.
1%
#213500
1"
1-
1.
0%
#214000
0"
0-
0.
1%
#214500
1"
1-
1.
0%
#215000
0"
0-
0.
1%
#215500
1"
1-
1.
0%
#216000
0"
0-
0.
1%
#216500
1"
1-
1.
0%
#217000
0"
0-
0.
1%
#217500
1"
1-
1.
0%
#218000
0"
0-
0.
1%
#218500
1"
1-
1.
0%
#219000
0"
0-
0.
1%
#219500
1"
1-
1.
0%
#220000
0"
0-
0.
1%
#220500
1"
1-
1.
0%
#221000
0"
0-
0.
1%
#221500
1"
1-
1.
0%
#222000
0"
0-
0.
1%
#222500
1"
1-
1.
0%
#223000
0"
0-
0.
1%
#223500
1"
1-
1.
0%
#224000
0"
0-
0.
1%
#224500
1"
1-
1.
0%
#225000
0"
0-
0.
1%
#225500
1"
1-
1.
0%
#226000
0"
0-
0.
1%
#226500
1"
1-
1.
0%
#227000
0"
0-
0.
1%
#227500
1"
1-
1.
0%
#228000
0"
0-
0.
1%
#228500
1"
1-
1.
0%
#229000
0"
0-
0.
1%
#229500
1"
1-
1.
0%
#230000
0"
0-
0.
1%
#230500
1"
1-
1.
0%
#231000
0"
0-
0.
1%
#231500
1"
1-
1.
0%
#232000
0"
0-
0.
1%
#232500
1"
1-
1.
0%
#233000
0"
0-
0.
1%
#233500
1"
1-
1.
0%
#234000
0"
0-
0.
1%
#234500
1"
1-
1.
0%
#235000
0"
0-
0.
1%
#235500
1"
1-
1.
0%
#236000
0"
0-
0.
1%
#236500
1"
1-
1.
0%
#237000
0"
0-
0.
1%
#237500
1"
1-
1.
0%
#238000
0"
0-
0.
1%
#238500
1"
1-
1.
0%
#239000
0"
0-
0.
1%
#239500
1"
1-
1.
0%
#240000
0"
0-
0.
1%
#240500
1"
1-
1.
0%
#241000
0"
0-
0.
1%
#241500
1"
1-
1.
0%
#242000
0"
0-
0.
1%
#242500
1"
1-
1.
0%
#243000
0"
0-
0.
1%
#243500
1"
1-
1.
0%
#244000
0"
0-
0.
1%
#244500
1"
1-
1.
0%
#245000
0"
0-
0.
1%
#245500
1"
1-
1.
0%
#246000
0"
0-
0.
1%
#246500
1"
1-
1.
0%
#247000
0"
0-
0.
1%
#247500
1"
1-
1.
0%
#248000
0"
0-
0.
1%
#248500
1"
1-
1.
0%
#249000
0"
0-
0.
1%
#249500
1"
1-
1.
0%
#250000
0"
0-
0.
1%
#250500
1"
1-
1.
0%
#251000
0"
0-
0.
1%
#251500
1"
1-
1.
0%
#252000
0"
0-
0.
1%
#252500
1"
1-
1.
0%
#253000
0"
0-
0.
1%
#253500
1"
1-
1.
0%
#254000
0"
0-
0.
1%
#254500
1"
1-
1.
0%
#255000
0"
0-
0.
1%
#255500
1"
1-
1.
0%
#256000
0"
0-
0.
1%
#256500
1"
1-
1.
0%
#257000
0"
0-
0.
1%
#257500
1"
1-
1.
0%
#258000
0"
0-
0.
1%
#258500
1"
1-
1.
0%
#259000
0"
0-
0.
1%
#259500
1"
1-
1.
0%
#260000
0"
0-
0.
1%
#260500
1"
1-
1.
0%
#261000
0"
0-
0.
1%
#261500
1"
1-
1.
0%
#262000
0"
0-
0.
1%
#262500
1"
1-
1.
0%
#263000
0"
0-
0.
1%
#263500
1"
1-
1.
0%
#264000
0"
0-
0.
1%
#264500
1"
1-
1.
0%
#265000
0"
0-
0.
1%
#265500
1"
1-
1.
0%
#266000
0"
0-
0.
1%
#266500
1"
1-
1.
0%
#267000
0"
0-
0.
1%
#267500
1"
1-
1.
0%
#268000
0"
0-
0.
1%
#268500
1"
1-
1.
0%
#269000
0"
0-
0.
1%
#269500
1"
1-
1.
0%
#270000
0"
0-
0.
1%
#270500
1"
1-
1.
0%
#271000
0"
0-
0.
1%
#271500
1"
1-
1.
0%
#272000
0"
0-
0.
1%
#272500
1"
1-
1.
0%
#273000
0"
0-
0.
1%
#273500
1"
1-
1.
0%
#274000
0"
0-
0.
1%
#274500
1"
1-
1.
0%
#275000
0"
0-
0.
1%
#275500
1"
1-
1.
0%
#276000
0"
0-
0.
1%
#276500
1"
1-
1.
0%
#277000
0"
0-
0.
1%
#277500
1"
1-
1.
0%
#278000
0"
0-
0.
1%
#278500
1"
1-
1.
0%
#279000
0"
0-
0.
1%
#279500
1"
1-
1.
0%
#280000
0"
0-
0.
1%
#280500
1"
1-
1.
0%
#281000
0"
0-
0.
1%
#281500
1"
1-
1.
0%
#282000
0"
0-
0.
1%
#282500
1"
1-
1.
0%
#283000
0"
0-
0.
1%
#283500
1"
1-
1.
0%
#284000
0"
0-
0.
1%
#284500
1"
1-
1.
0%
#285000
0"
0-
0.
1%
#285500
1"
1-
1.
0%
#286000
0"
0-
0.
1%
#286500
1"
1-
1.
0%
#287000
0"
0-
0.
1%
#287500
1"
1-
1.
0%
#288000
0"
0-
0.
1%
#288500
1"
1-
1.
0%
#289000
0"
0-
0.
1%
#289500
1"
1-
1.
0%
#290000
0"
0-
0.
1%
#290500
1"
1-
1.
0%
#291000
0"
0-
0.
1%
#291500
1"
1-
1.
0%
#292000
0"
0-
0.
1%
#292500
1"
1-
1.
0%
#293000
0"
0-
0.
1%
#293500
1"
1-
1.
0%
#294000
0"
0-
0.
1%
#294500
1"
1-
1.
0%
#295000
0"
0-
0.
1%
#295500
1"
1-
1.
0%
#296000
0"
0-
0.
1%
#296500
1"
1-
1.
0%
#297000
0"
0-
0.
1%
#297500
1"
1-
1.
0%
#298000
0"
0-
0.
1%
#298500
1"
1-
1.
0%
#299000
0"
0-
0.
1%
#299500
1"
1-
1.
0%
#300000
0"
0-
0.
1%
#300500
1"
1-
1.
0%
#301000
0"
0-
0.
1%
#301500
1"
1-
1.
0%
#302000
0"
0-
0.
1%
#302500
1"
1-
1.
0%
#303000
0"
0-
0.
1%
#303500
1"
1-
1.
0%
#304000
0"
0-
0.
1%
#304500
1"
1-
1.
0%
#305000
0"
0-
0.
1%
#305500
1"
1-
1.
0%
#306000
0"
0-
0.
1%
#306500
1"
1-
1.
0%
#307000
0"
0-
0.
1%
#307500
1"
1-
1.
0%
#308000
0"
0-
0.
1%
#308500
1"
1-
1.
0%
#309000
0"
0-
0.
1%
#309500
1"
1-
1.
0%
#310000
0"
0-
0.
1%
#310500
1"
1-
1.
0%
#311000
0"
0-
0.
1%
#311500
1"
1-
1.
0%
#312000
0"
0-
0.
1%
#312500
1"
1-
1.
0%
#313000
0"
0-
0.
1%
#313500
1"
1-
1.
0%
#314000
0"
0-
0.
1%
#314500
1"
1-
1.
0%
#315000
0"
0-
0.
1%
#315500
1"
1-
1.
0%
#316000
0"
0-
0.
1%
#316500
1"
1-
1.
0%
#317000
0"
0-
0.
1%
#317500
1"
1-
1.
0%
#318000
0"
0-
0.
1%
#318500
1"
1-
1.
0%
#319000
0"
0-
0.
1%
#319500
1"
1-
1.
0%
#320000
0"
0-
0.
1%
#320500
1"
1-
1.
0%
#321000
0"
0-
0.
1%
#321500
1"
1-
1.
0%
#322000
0"
0-
0.
1%
#322500
1"
1-
1.
0%
#323000
0"
0-
0.
1%
#323500
1"
1-
1.
0%
#324000
0"
0-
0.
1%
#324500
1"
1-
1.
0%
#325000
0"
0-
0.
1%
#325500
1"
1-
1.
0%
#326000
0"
0-
0.
1%
#326500
1"
1-
1.
0%
#327000
0"
0-
0.
1%
#327500
1"
1-
1.
0%
#328000
0"
0-
0.
1%
#328500
1"
1-
1.
0%
#329000
0"
0-
0.
1%
#329500
1"
1-
1.
0%
#330000
0"
0-
0.
1%
#330500
1"
1-
1.
0%
#331000
0"
0-
0.
1%
#331500
1"
1-
1.
0%
#332000
0"
0-
0.
1%
#332500
1"
1-
1.
0%
#333000
0"
0-
0.
1%
#333500
1"
1-
1.
0%
#334000
0"
0-
0.
1%
#334500
1"
1-
1.
0%
#335000
0"
0-
0.
1%
#335500
1"
1-
1.
0%
#336000
0"
0-
0.
1%
#336500
1"
1-
1.
0%
#337000
0"
0-
0.
1%
#337500
1"
1-
1.
0%
#338000
0"
0-
0.
1%
#338500
1"
1-
1.
0%
#339000
0"
0-
0.
1%
#339500
1"
1-
1.
0%
#340000
0"
0-
0.
1%
#340500
1"
1-
1.
0%
#341000
0"
0-
0.
1%
#341500
1"
1-
1.
0%
#342000
0"
0-
0.
1%
#342500
1"
1-
1.
0%
#343000
0"
0-
0.
1%
#343500
1"
1-
1.
0%
#344000
0"
0-
0.
1%
#344500
1"
1-
1.
0%
#345000
0"
0-
0.
1%
#345500
1"
1-
1.
0%
#346000
0"
0-
0.
1%
#346500
1"
1-
1.
0%
#347000
0"
0-
0.
1%
#347500
1"
1-
1.
0%
#348000
0"
0-
0.
1%
#348500
1"
1-
1.
0%
#349000
0"
0-
0.
1%
#349500
1"
1-
1.
0%
#350000
0"
0-
0.
1%
#350500
1"
1-
1.
0%
#351000
0"
0-
0.
1%
#351500
1"
1-
1.
0%
#352000
0"
0-
0.
1%
#352500
1"
1-
1.
0%
#353000
0"
0-
0.
1%
#353500
1"
1-
1.
0%
#354000
0"
0-
0.
1%
#354500
1"
1-
1.
0%
#355000
0"
0-
0.
1%
#355500
1"
1-
1.
0%
